{
  "layer": "gazette",
  "page": 487,
  "pageSize": 100,
  "totalItems": 48614,
  "totalPages": 487,
  "items": [
    {
      "id": "gazette-2026-04-07-008_국토교통부_국토교통부공고제2026_458호_여객자동차_운수사업법_시행규칙_일부개정령안_입법예고-ebc46348b2",
      "layer": "gazette",
      "title": "국토교통부공고제2026-458호(여객자동차 운수사업법 시행규칙 일부개정령안 입법예고)",
      "institution": "국토교통부",
      "date": "2026-04-07",
      "docType": "공고",
      "excerpt": "◉국토교통부공고 제2026-458호 여객자동차 운수사업법 시행규칙 일부개정령안 입법예고를 하는데 있어, 그 이유와 주요내용을 국 민에게 미리 알려 이에 대한 의견을 듣기위하여 ‘행정절차법’ 제 41조에 따라 다음과 같이 공고합 니다. 2026년 04월 07일 국토교통부장관",
      "detailPath": "docs/details/gazette/gazette-2026-04-07-008_국토교통부_국토교통부공고제2026_458호_여객자동차_운수사업법_시행규칙_일부개정령안_입법예고-ebc46348b2.json"
    },
    {
      "id": "gazette-2026-04-07-009_국토교통부_국토교통부공고제2026_457호_여객자동차_운수사업법_시행령_일부개정령안_입법예고-18259799e4",
      "layer": "gazette",
      "title": "국토교통부공고제2026-457호(여객자동차 운수사업법 시행령 일부개정령안 입법예고)",
      "institution": "국토교통부",
      "date": "2026-04-07",
      "docType": "공고",
      "excerpt": "◉국토교통부공고 제2026-457호 여객자동차 운수사업법 시행령 일부개정령안 입법예고를 하는데 있어, 그 이유와 주요내용을 국민 에게 미리 알려 이에 대한 의견을 듣기위하여 ‘행정절차법’ 제 41조에 따라 다음과 같이 공고합니 다. 2026년 04월 07일 국토교통부장관",
      "detailPath": "docs/details/gazette/gazette-2026-04-07-009_국토교통부_국토교통부공고제2026_457호_여객자동차_운수사업법_시행령_일부개정령안_입법예고-18259799e4.json"
    },
    {
      "id": "gazette-2026-04-07-010_금융위원회_총리령제2110호_금융위원회와_그_소속기관_직제_시행규칙_일부개정령_중_정정-3e16edd411",
      "layer": "gazette",
      "title": "총리령제2110호(금융위원회와 그 소속기관 직제 시행규칙 일부개정령 중 정정)",
      "institution": "금융위원회",
      "date": "2026-04-07",
      "docType": "총리령",
      "excerpt": "○ 총리령제2110호(금융위원회와 그 소속기관 직제 시행규칙 일부개정령 중 정정) 관보 제21208호(2026. 03. 31.) 에 게재된 총리령제2110호(금융위원회와 그 소속기관 직 제 시행규칙 일부개정령) 중 오류사항이 있어 다음과 같이 정정합니다. 2026년 04월 07일 국무총리 관보내용|정정사항|비고",
      "detailPath": "docs/details/gazette/gazette-2026-04-07-010_금융위원회_총리령제2110호_금융위원회와_그_소속기관_직제_시행규칙_일부개정령_중_정정-3e16edd411.json"
    },
    {
      "id": "gazette-2026-04-07-011_기후에너지환경부_낙동강유역환경청고시제2026_21호_하천공사시행계획_변경_고시_평강천_중곡2지구-681d7fbc7a",
      "layer": "gazette",
      "title": "낙동강유역환경청고시제2026-21호(하천공사시행계획(변경) 고시(평강천 중곡2지구))",
      "institution": "기후에너지환경부",
      "date": "2026-04-07",
      "docType": "고시",
      "excerpt": "◉낙동강유역환경청고시 제2026-21호 「하천법」 제27조 규정에 의거 하천공사시행계획(변경)을 다음과 같이 고시합니다. 2026년 04월 07일 낙동강유역환경청장 하천공사시행계획(변경) 고시(평강천 중곡2지구)",
      "detailPath": "docs/details/gazette/gazette-2026-04-07-011_기후에너지환경부_낙동강유역환경청고시제2026_21호_하천공사시행계획_변경_고시_평강천_중곡2지구-681d7fbc7a.json"
    },
    {
      "id": "gazette-2026-04-07-012_기후에너지환경부_낙동강유역환경청고시제2026_19호_하천공사시행계획_변경_고시_평강천_하리지구-f7bb9f34d8",
      "layer": "gazette",
      "title": "낙동강유역환경청고시제2026-19호(하천공사시행계획(변경) 고시(평강천 하리지구))",
      "institution": "기후에너지환경부",
      "date": "2026-04-07",
      "docType": "고시",
      "excerpt": "◉낙동강유역환경청고시 제2026-19호 「하천법」 제27조 규정에 의거 하천공사시행계획(변경)을 다음과 같이 고시합니다. 2026년 04월 07일 낙동강유역환경청장 하천공사시행계획(변경) 고시(평강천 하리지구)",
      "detailPath": "docs/details/gazette/gazette-2026-04-07-012_기후에너지환경부_낙동강유역환경청고시제2026_19호_하천공사시행계획_변경_고시_평강천_하리지구-f7bb9f34d8.json"
    },
    {
      "id": "gazette-2026-04-07-013_기후에너지환경부_낙동강유역환경청고시제2026_20호_하천공사시행계획_변경_고시_평강천_중곡1지구-16e32f2808",
      "layer": "gazette",
      "title": "낙동강유역환경청고시제2026-20호(하천공사시행계획(변경) 고시(평강천 중곡1지구))",
      "institution": "기후에너지환경부",
      "date": "2026-04-07",
      "docType": "고시",
      "excerpt": "◉낙동강유역환경청고시 제2026-20호 「하천법」 제27조 규정에 의거 하천공사시행계획(변경)을 다음과 같이 고시합니다. 2026년 04월 07일 낙동강유역환경청장 하천공사시행계획(변경) 고시(평강천 중곡1지구)",
      "detailPath": "docs/details/gazette/gazette-2026-04-07-013_기후에너지환경부_낙동강유역환경청고시제2026_20호_하천공사시행계획_변경_고시_평강천_중곡1지구-16e32f2808.json"
    },
    {
      "id": "gazette-2026-04-07-014_법무부_속초출장소고시제2026_14호_국적상실-3b7d86e0f2",
      "layer": "gazette",
      "title": "속초출장소고시제2026-14호(국적상실)",
      "institution": "법무부",
      "date": "2026-04-07",
      "docType": "고시",
      "excerpt": "◉속초출장소고시 제2026-14호 다음 사람들은 국적법 제15조 규정에 따라 대한민국 국적을 상실하였으므로 고시합니다. 2026년 04월 07일 춘천출입국·외국인사무소 속초출장소장 국적상실",
      "detailPath": "docs/details/gazette/gazette-2026-04-07-014_법무부_속초출장소고시제2026_14호_국적상실-3b7d86e0f2.json"
    },
    {
      "id": "gazette-2026-04-07-015_법무부_대구출입국_외국인사무소고시제2026_9호_국적상실신고_수리-9b534472ad",
      "layer": "gazette",
      "title": "대구출입국.외국인사무소고시제2026-9호(국적상실신고 수리)",
      "institution": "법무부",
      "date": "2026-04-07",
      "docType": "고시",
      "excerpt": "◉대구출입국.외국인사무소고시 제2026-9호 다음 사람들은 국적법 제15조 규정에 따라 대한민국 국적을 상실하였으므로 고시합니다. 2026년 04월 07일 대구출입국·외국인사무소장 국적상실신고 수리",
      "detailPath": "docs/details/gazette/gazette-2026-04-07-015_법무부_대구출입국_외국인사무소고시제2026_9호_국적상실신고_수리-9b534472ad.json"
    },
    {
      "id": "gazette-2026-04-07-016_식품의약품안전처_서울지방식품의약품안전청공고제2026_58호_약사법_위반업체_행정처분_통지_공고-80b2f77ac9",
      "layer": "gazette",
      "title": "서울지방식품의약품안전청공고제2026-58호(약사법 위반업체 행정처분 통지 공고)",
      "institution": "식품의약품안전처",
      "date": "2026-04-07",
      "docType": "공고",
      "excerpt": "◉서울지방식품의약품안전청공고 제2026-58호 약사법 위반사실에 대하여 행정처분 통지하고자 하나, 동 내용을 송달할 수 없으므로 행정절차법 제14조 제4항의 규정에 따라 다음과 같이 공고합니다. 2026년 04월 07일 서울지방식품의약품안전청장",
      "detailPath": "docs/details/gazette/gazette-2026-04-07-016_식품의약품안전처_서울지방식품의약품안전청공고제2026_58호_약사법_위반업체_행정처분_통지_공고-80b2f77ac9.json"
    },
    {
      "id": "gazette-2026-04-07-017_인사혁신처_인사혁신처공고제2026_193호_국가공무원_복무규정_일부개정령안_입법예고-8a5e45887b",
      "layer": "gazette",
      "title": "인사혁신처공고제2026-193호(「국가공무원 복무규정」 일부개정령안 입법예고)",
      "institution": "인사혁신처",
      "date": "2026-04-07",
      "docType": "공고",
      "excerpt": "◉인사혁신처공고 제2026-193호 「국가공무원 복무규정」 일부개정령안 입법예고를 하는데 있어, 그 이유와 주요내용을 국민에게 미리 알려 이에 대한 의견을 듣기위하여 ‘행정절차법’ 제 41조에 따라 다음과 같이 공고합니다. 2026년 04월 07일 인사혁신처장",
      "detailPath": "docs/details/gazette/gazette-2026-04-07-017_인사혁신처_인사혁신처공고제2026_193호_국가공무원_복무규정_일부개정령안_입법예고-8a5e45887b.json"
    },
    {
      "id": "gazette-2026-04-07-018_충청남도_천안시고시제2026_124호_동천안_일반산업단지_산업단지계획_변경_승인_및_지형도면_고시-3f3d228b07",
      "layer": "gazette",
      "title": "천안시고시제2026-124호(동천안 일반산업단지 산업단지계획(변경) 승인 및 지형도면 고시)",
      "institution": "충청남도",
      "date": "2026-04-07",
      "docType": "지방자치단체",
      "excerpt": "◉천안시고시 제2026-124호 1. 천안시 고시 제2024-516호(2024. 12. 23.)로 산업단지계획 승인 고시된 동천안 일반산업단지 에 대하여, 「산업단지 인·허가 절차 간소화를 위한 특례법」제15조에 따라 다음과 같이 산업 단지계획을 승인(변경) 고시하며, 「국토의 계획 및 이용에 관한 법률」제32조 및 「토지이용규 제 기본법」제8조에 따라 지형도면을 고시합니다. 2. 관계도면의",
      "detailPath": "docs/details/gazette/gazette-2026-04-07-018_충청남도_천안시고시제2026_124호_동천안_일반산업단지_산업단지계획_변경_승인_및_지형도면_고시-3f3d228b07.json"
    },
    {
      "id": "gazette-2026-04-07-019_충청남도_천안시고시제2026_126호_동천안_일반산업단지_관리기본계획_변경_수립_고시-276f18ae17",
      "layer": "gazette",
      "title": "천안시고시제2026-126호(동천안 일반산업단지 관리기본계획(변경) 수립 고시)",
      "institution": "충청남도",
      "date": "2026-04-07",
      "docType": "지방자치단체",
      "excerpt": "◉천안시고시 제2026-126호 1. 「산업집적활성화 및 공장설립에 관한 법률」제33조 규정에 따라 동천안 일반산업단지 관리기 본계획(변경)을 다음과 같이 수립하여 고시합니다. 2. 관계도서의 게재는 생략하며 관계도서는 천안시 산업단지조성추진과(041-521-5467)에 비치 하고, 이해관계인과 일반인에게 보입니다.",
      "detailPath": "docs/details/gazette/gazette-2026-04-07-019_충청남도_천안시고시제2026_126호_동천안_일반산업단지_관리기본계획_변경_수립_고시-276f18ae17.json"
    },
    {
      "id": "gazette-2026-04-07-020_해양경찰청_중부지방해양경찰청공고제2026_18호_국가채권_체납자_독촉장_반송에_따른_공시송달-62e6a08844",
      "layer": "gazette",
      "title": "중부지방해양경찰청공고제2026-18호(국가채권 체납자 독촉장 반송에 따른 공시송달)",
      "institution": "해양경찰청",
      "date": "2026-04-07",
      "docType": "공고",
      "excerpt": "◉중부지방해양경찰청공고 제2026-18호 과태료 집행을 위한 납부독촉장 및 재산압류 안내문을 등기우편으로 송부하였으나, 폐문부재의 사 유로 반송되어 행정절차법 제14조 제4항의 규정에 의하여 아래와 같이 공시송달(공고) 합니다. 2026년 04월 07일 중부지방해양경찰청장",
      "detailPath": "docs/details/gazette/gazette-2026-04-07-020_해양경찰청_중부지방해양경찰청공고제2026_18호_국가채권_체납자_독촉장_반송에_따른_공시송달-62e6a08844.json"
    },
    {
      "id": "gazette-2026-04-07-021_해양수산부_부산항건설사무소공고제2026_31호_항만개발사업_실시계획_신고_수리_공고-766b9d33b9",
      "layer": "gazette",
      "title": "부산항건설사무소공고제2026-31호(항만개발사업 실시계획 신고 수리 공고)",
      "institution": "해양수산부",
      "date": "2026-04-07",
      "docType": "공고",
      "excerpt": "◉부산항건설사무소공고 제2026-31호 ㈜부산도시가스에서 신청한 “나이가이부산물류센터 북컨 태양광 발전소 설치공사”에 대하여「항 만법」제10조제7항에 따라 비관리청 항만개발사업 실시계획 신고를 수리하고 다음과 같이 공고합니 다. 2026년 04월 07일 부산지방해양수산청 부산항건설사무소",
      "detailPath": "docs/details/gazette/gazette-2026-04-07-021_해양수산부_부산항건설사무소공고제2026_31호_항만개발사업_실시계획_신고_수리_공고-766b9d33b9.json"
    }
  ]
}