{
  "layer": "gazette",
  "page": 73,
  "pageSize": 100,
  "totalItems": 7247,
  "totalPages": 73,
  "items": [
    {
      "id": "gazette-2026-04-03-023_국토교통부_부산지방국토관리청공고제2026_82호_건설공사_안전점검_수행기관_지정_공고",
      "layer": "gazette",
      "title": "부산지방국토관리청공고제2026-82호(건설공사 안전점검 수행기관 지정 공고)",
      "institution": "국토교통부",
      "date": "2026-04-03",
      "docType": "공고",
      "excerpt": "◉부산지방국토관리청공고 제2026-82호 ｢건설기술 진흥법｣ 제62조, 같은 법 시행령 제100조, 제100조의2, ｢건설공사 안전관리 업무수행 지침｣에 따라  청송 청송 청운-부남 감연 국도건설공사  안전점검(정기점검) 수행기관을 지정하고자 아래와 같이 공고합니다. 2026년 04월 03일 부산지방국토관리청장",
      "detailPath": "docs/details/gazette/gazette-2026-04-03-023_국토교통부_부산지방국토관리청공고제2026_82호_건설공사_안전점검_수행기관_지정_공고.json"
    },
    {
      "id": "gazette-2026-04-03-024_국토교통부_대전지방국토관리청공고제2026_49호_과태료_부과_사전통지_의견제출통지_공시_송달",
      "layer": "gazette",
      "title": "대전지방국토관리청공고제2026-49호(과태료 부과 사전통지(의견제출통지) 공시 송달)",
      "institution": "국토교통부",
      "date": "2026-04-03",
      "docType": "공고",
      "excerpt": "◉대전지방국토관리청공고 제2026-49호 「건설기술진흥법」위반사실에 대한 과태료 부과 사전통지서(의견제출통지)를 등기우편으로 발송 하였으나, 폐문부재 등의 사유로 반송되어「행정절차법」제14조 제4항(송달)에 따라 다음과 같이 공 시송달(공고)합니다. 2026년 04월 03일 대전지방국토관리청장",
      "detailPath": "docs/details/gazette/gazette-2026-04-03-024_국토교통부_대전지방국토관리청공고제2026_49호_과태료_부과_사전통지_의견제출통지_공시_송달.json"
    },
    {
      "id": "gazette-2026-04-06-001_강원특별자치도교육청_강원특별자치도홍천교육지원청공고제2026_47호_폐교재산_구_화계초_화양분교장_매각_계획_공고",
      "layer": "gazette",
      "title": "강원특별자치도홍천교육지원청공고제2026-47호(폐교재산[(구)화계초 화양분교장] 매각 계획 공고)",
      "institution": "강원특별자치도교육청",
      "date": "2026-04-06",
      "docType": "지방자치단체",
      "excerpt": "◉강원특별자치도홍천교육지원청공고 제2026-47호 공유재산(폐교재산)을 매각하기 위해 그 취지와 주요 내용을 지역주민 및 이해 관계인에게 미리 알리고자, 「폐교재산의 활용촉진을 위한 특별법 시행령」 제3조 제5항에 따라 공유재산(폐교재산) 매각 계획을 아래와 같이 공고합니다. 2026년 04월 06일 강원특별자치도홍천교육지원청교육장",
      "detailPath": "docs/details/gazette/gazette-2026-04-06-001_강원특별자치도교육청_강원특별자치도홍천교육지원청공고제2026_47호_폐교재산_구_화계초_화양분교장_매각_계획_공고.json"
    },
    {
      "id": "gazette-2026-04-06-002_강원특별자치도교육청_강원특별자치도홍천교육지원청공고제2026_46호_폐교재산_구_화촌초_율촌분교장_매각_계획_공고",
      "layer": "gazette",
      "title": "강원특별자치도홍천교육지원청공고제2026-46호(폐교재산[(구)화촌초 율촌분교장] 매각 계획 공고)",
      "institution": "강원특별자치도교육청",
      "date": "2026-04-06",
      "docType": "지방자치단체",
      "excerpt": "◉강원특별자치도홍천교육지원청공고 제2026-46호 공유재산(폐교재산)을 매각하기 위해 그 취지와 주요 내용을 지역주민 및 이해 관계인에게 미리 알리고자, 「폐교재산의 활용촉진을 위한 특별법 시행령」 제3조 제5항에 따라 공유재산(폐교재산) 매각 계획을 아래와 같이 공고합니다 2026년 04월 06일 강원특별자치도홍천교육지원청교육장",
      "detailPath": "docs/details/gazette/gazette-2026-04-06-002_강원특별자치도교육청_강원특별자치도홍천교육지원청공고제2026_46호_폐교재산_구_화촌초_율촌분교장_매각_계획_공고.json"
    },
    {
      "id": "gazette-2026-04-06-003_강원특별자치도교육청_강원특별자치도홍천교육지원청공고제2026_49호_폐교재산_구_속초초_좌운분교장_실습지_좌운리_1854_매각_계획_공고",
      "layer": "gazette",
      "title": "강원특별자치도홍천교육지원청공고제2026-49호(폐교재산[(구)속초초 좌운분교장] 실습지 (좌운리 1854) 매각 계획 공고)",
      "institution": "강원특별자치도교육청",
      "date": "2026-04-06",
      "docType": "지방자치단체",
      "excerpt": "◉강원특별자치도홍천교육지원청공고 제2026-49호 공유재산(폐교재산)을 매각하기 위해 그 취지와 주요 내용을 지역주민 및 이해 관계인에게 미리 알리고자, 「폐교재산의 활용촉진을 위한 특별법 시행령」 제3조 제5항에 따라 공유재산(폐교재산) 매각 계획을 아래와 같이 공고합니다. 2026년 04월 06일 강원특별자치도홍천교육지원청교육장",
      "detailPath": "docs/details/gazette/gazette-2026-04-06-003_강원특별자치도교육청_강원특별자치도홍천교육지원청공고제2026_49호_폐교재산_구_속초초_좌운분교장_실습지_좌운리_1854_매각_계획_공고.json"
    },
    {
      "id": "gazette-2026-04-06-004_강원특별자치도교육청_강원특별자치도홍천교육지원청공고제2026_48호_폐교재산_구_창촌초_원자분교장_실습지_자운리_1085_227_매각_계획_공고",
      "layer": "gazette",
      "title": "강원특별자치도홍천교육지원청공고제2026-48호(폐교재산[(구)창촌초 원자분교장] 실습지(자운리 1085-227) 매각 계획 공고)",
      "institution": "강원특별자치도교육청",
      "date": "2026-04-06",
      "docType": "지방자치단체",
      "excerpt": "◉강원특별자치도홍천교육지원청공고 제2026-48호 공유재산(폐교재산)을 매각하기 위해 그 취지와 주요 내용을 지역주민 및 이해 관계인에게 미리 알리고자, 「폐교재산의 활용촉진을 위한 특별법 시행령」 제3조 제5항에 따라 공유재산(폐교재산) 매각 계획을 아래와 같이 공고합니다. 2026년 04월 06일 강원특별자치도홍천교육지원청교육장",
      "detailPath": "docs/details/gazette/gazette-2026-04-06-004_강원특별자치도교육청_강원특별자치도홍천교육지원청공고제2026_48호_폐교재산_구_창촌초_원자분교장_실습지_자운리_1085_227_매각_계획_공고.json"
    },
    {
      "id": "gazette-2026-04-06-005_경기도_경기도고시제2026_90호_공공주택건설_사업계획_변경승인_다산지금_A_3BL",
      "layer": "gazette",
      "title": "경기도고시제2026-90호(공공주택건설 사업계획 변경승인(다산지금 A-3BL))",
      "institution": "경기도",
      "date": "2026-04-06",
      "docType": "지방자치단체",
      "excerpt": "◉경기도고시 제2026-90호 「공공주택 특별법」 제35조제1항에 따라 다산지금 공공주택지구 내 A-3블록(통합공공임대 518 세대) 공공주택건설 사업계획을 변경승인하고, 「공공주택 특별법」 제35조제5항 및 같은 법 시행령 제30조에 따라 다음과 같이 고시합니다.",
      "detailPath": "docs/details/gazette/gazette-2026-04-06-005_경기도_경기도고시제2026_90호_공공주택건설_사업계획_변경승인_다산지금_A_3BL.json"
    },
    {
      "id": "gazette-2026-04-06-006_고용노동부_광주지방고용노동청공고제2026_67호_국민취업지원제도_취업지원_종료_처분_사전통지_및_의견제출_공시송달",
      "layer": "gazette",
      "title": "광주지방고용노동청공고제2026-67호(국민취업지원제도 취업지원 종료 처분 사전통지 및 의견제출 공시송달)",
      "institution": "고용노동부",
      "date": "2026-04-06",
      "docType": "공고",
      "excerpt": "◉광주지방고용노동청공고 제2026-67호 국민취업지원제도 참여자에게 행정처분 사전통지 및 의견제출서를 발송하였으나 폐문 등의 사유로, 송달이 불가능하여 「행정절차법」 제14조 및 제15조에 따라 다음과 같이 공시송달합니다. 2026년 04월 06일 광주지방고용노동청장",
      "detailPath": "docs/details/gazette/gazette-2026-04-06-006_고용노동부_광주지방고용노동청공고제2026_67호_국민취업지원제도_취업지원_종료_처분_사전통지_및_의견제출_공시송달.json"
    },
    {
      "id": "gazette-2026-04-06-007_고용노동부_고용노동부공고제2026_201호_임금채권보장법_시행령_일부개정령안_재입법예고",
      "layer": "gazette",
      "title": "고용노동부공고제2026-201호(임금채권보장법 시행령 일부개정령안 재입법예고)",
      "institution": "고용노동부",
      "date": "2026-04-06",
      "docType": "공고",
      "excerpt": "◉고용노동부공고 제2026-201호 임금채권보장법 시행령 일부개정령안 재입법예고를 하는데 있어, 그 이유와 주요내용을 국민에게 미리 알려 이에 대한 의견을 듣기위하여 ‘행정절차법’ 제 41조에 따라 다음과 같이 공고합니다. 2026년 04월 06일 고용노동부장관",
      "detailPath": "docs/details/gazette/gazette-2026-04-06-007_고용노동부_고용노동부공고제2026_201호_임금채권보장법_시행령_일부개정령안_재입법예고.json"
    },
    {
      "id": "gazette-2026-04-06-008_과학기술정보통신부_강원지방우정청공고제2026_24호_점심시간_휴무제_시범운영에_따른_행정예고",
      "layer": "gazette",
      "title": "강원지방우정청공고제2026-24호(점심시간 휴무제 시범운영에 따른 행정예고)",
      "institution": "과학기술정보통신부",
      "date": "2026-04-06",
      "docType": "공고",
      "excerpt": "◉강원지방우정청공고 제2026-24호 점심시간 휴무제 시범운영 관서를 국민에게 미리 알려 이에 대한 의견을 듣고자『행정절차법』제 46조에 따라 다음과 같이 공고합니다. 2026년 04월 06일 강원지방우정청장",
      "detailPath": "docs/details/gazette/gazette-2026-04-06-008_과학기술정보통신부_강원지방우정청공고제2026_24호_점심시간_휴무제_시범운영에_따른_행정예고.json"
    },
    {
      "id": "gazette-2026-04-06-009_과학기술정보통신부_대전전파관리소공고제2026_28호_전파법령_위반_정기검사_미이행_무선국_행정처분_운용정지_2개월_청문_실시_알림",
      "layer": "gazette",
      "title": "대전전파관리소공고제2026-28호(전파법령 위반(정기검사 미이행) 무선국 행정처분(운용정지 2개월) 청문 실시 알림)",
      "institution": "과학기술정보통신부",
      "date": "2026-04-06",
      "docType": "공고",
      "excerpt": "◉대전전파관리소공고 제2026-28호 행정절차법 제14조제4항의 규정에 의거 “폐문 부재” 등으로 송달되지 않은 전파법령 위반 무선 국 시설자에 대한 행정처분 청문통지 내역을 다음과 같이 공고합니다. 2026년 04월 06일 대전전파관리소장",
      "detailPath": "docs/details/gazette/gazette-2026-04-06-009_과학기술정보통신부_대전전파관리소공고제2026_28호_전파법령_위반_정기검사_미이행_무선국_행정처분_운용정지_2개월_청문_실시_알림.json"
    },
    {
      "id": "gazette-2026-04-06-010_과학기술정보통신부_서울지방우정청고시제2026_7호_우체국_명칭_변경에_따른_고시",
      "layer": "gazette",
      "title": "서울지방우정청고시제2026-7호(우체국 명칭 변경에 따른 고시)",
      "institution": "과학기술정보통신부",
      "date": "2026-04-06",
      "docType": "고시",
      "excerpt": "◉서울지방우정청고시 제2026-7호 서울지방우정청 소속 화곡우체국 명칭 변경에 관한 사항을 다음과 같이 고시합니다. 2026년 04월 06일 서울지방우정청장 우체국 명칭 변경에 따른 고시",
      "detailPath": "docs/details/gazette/gazette-2026-04-06-010_과학기술정보통신부_서울지방우정청고시제2026_7호_우체국_명칭_변경에_따른_고시.json"
    },
    {
      "id": "gazette-2026-04-06-011_과학기술정보통신부_광주전파관리소공고제2026_23호_2026년_1분기_전파사용료_독촉정기고지_반송내역_공시송달",
      "layer": "gazette",
      "title": "광주전파관리소공고제2026-23호(2026년 1분기 전파사용료(독촉정기고지) 반송내역 공시송달)",
      "institution": "과학기술정보통신부",
      "date": "2026-04-06",
      "docType": "공고",
      "excerpt": "◉광주전파관리소공고 제2026-23호 행정절차법 제14조 제4항의 규정에 의하여 다음과 같이 공고합니다. 2026년 04월 06일 광주전파관리소장 2026년 1분기 전파사용료(독촉정기고지) 반송내역 공시송달",
      "detailPath": "docs/details/gazette/gazette-2026-04-06-011_과학기술정보통신부_광주전파관리소공고제2026_23호_2026년_1분기_전파사용료_독촉정기고지_반송내역_공시송달.json"
    },
    {
      "id": "gazette-2026-04-06-012_과학기술정보통신부_충청지방우정청고시제2026_5호_우편취급국_변경_사항_이전_에_관한_고시",
      "layer": "gazette",
      "title": "충청지방우정청고시제2026-5호(우편취급국 변경 사항(이전)에 관한 고시)",
      "institution": "과학기술정보통신부",
      "date": "2026-04-06",
      "docType": "고시",
      "excerpt": "◉충청지방우정청고시 제2026-5호 우체국창구업무의위탁에관한법률시행령 제9조에 의거 우편취급국 위탁계약 변경 사항(이전)을 다 음과 같이 고시합니다. 2026년 04월 06일 충청지방우정청장",
      "detailPath": "docs/details/gazette/gazette-2026-04-06-012_과학기술정보통신부_충청지방우정청고시제2026_5호_우편취급국_변경_사항_이전_에_관한_고시.json"
    },
    {
      "id": "gazette-2026-04-06-013_과학기술정보통신부_경북지방우정청공고제2026_44호_우편취급국_위탁대상자_모집_공고",
      "layer": "gazette",
      "title": "경북지방우정청공고제2026-44호(우편취급국 위탁대상자 모집 공고)",
      "institution": "과학기술정보통신부",
      "date": "2026-04-06",
      "docType": "공고",
      "excerpt": "◉경북지방우정청공고 제2026-44호 「우체국창구업무의 위탁에 관한 법률」 제3조 및 동법 시행령 제6조에 따라 우체국창구업무 위탁 대상자를 다음과 같이 모집 공고합니다. 2026년 04월 06일 경북지방우정청장",
      "detailPath": "docs/details/gazette/gazette-2026-04-06-013_과학기술정보통신부_경북지방우정청공고제2026_44호_우편취급국_위탁대상자_모집_공고.json"
    },
    {
      "id": "gazette-2026-04-06-014_과학기술정보통신부_상훈_39_2026년_2월말_퇴직교원_포상_39_정부포상_수여_과학기술정보통신부",
      "layer": "gazette",
      "title": "상훈(& #39;2026년 2월말 퇴직교원 포상& #39; 정부포상 수여 (과학기술정보통신부))",
      "institution": "과학기술정보통신부",
      "date": "2026-04-06",
      "docType": "상훈",
      "excerpt": "'2026년 2월말 퇴직교원 포상' 정부포상 수여 한국과학기술원 송민호 옥조 근정훈장 한국과학기술원 오병하 근정포장",
      "detailPath": "docs/details/gazette/gazette-2026-04-06-014_과학기술정보통신부_상훈_39_2026년_2월말_퇴직교원_포상_39_정부포상_수여_과학기술정보통신부.json"
    },
    {
      "id": "gazette-2026-04-06-015_교육부_2026년_2월말_퇴직교원_정부포상_2026년_2월말_퇴직교원_정부포상",
      "layer": "gazette",
      "title": "2026년 2월말 퇴직교원 정부포상(2026년 2월말 퇴직교원 정부포상)",
      "institution": "교육부",
      "date": "2026-04-06",
      "docType": "기타",
      "excerpt": "'2026년 2월말 퇴직교원' 정부포상 수여 전 국립창원대학교 이호영 청조 근정훈장 전 고려대학교 정진택 청조 근정훈장",
      "detailPath": "docs/details/gazette/gazette-2026-04-06-015_교육부_2026년_2월말_퇴직교원_정부포상_2026년_2월말_퇴직교원_정부포상.json"
    },
    {
      "id": "gazette-2026-04-06-016_교육부_교육부공고제2026_156호_고등교육법_시행령_일부개정령안_입법예고",
      "layer": "gazette",
      "title": "교육부공고제2026-156호(「고등교육법 시행령」일부개정령안 입법예고)",
      "institution": "교육부",
      "date": "2026-04-06",
      "docType": "공고",
      "excerpt": "◉교육부공고 제2026-156호 「고등교육법 시행령」일부개정령안 입법예고를 하는데 있어, 그 이유와 주요내용을 국민에게 미리 알려 이에 대한 의견을 듣기위하여 ‘행정절차법’ 제 41조에 따라 다음과 같이 공고합니다. 2026년 04월 06일 교육부장관",
      "detailPath": "docs/details/gazette/gazette-2026-04-06-016_교육부_교육부공고제2026_156호_고등교육법_시행령_일부개정령안_입법예고.json"
    },
    {
      "id": "gazette-2026-04-06-017_교육부_교육부공고제2026_157호_사립대학의_구조개선_지원에_관한_법률_시행령_제정안_입법예고",
      "layer": "gazette",
      "title": "교육부공고제2026-157호(「사립대학의 구조개선 지원에 관한 법률 시행령」제정안 입법예고)",
      "institution": "교육부",
      "date": "2026-04-06",
      "docType": "공고",
      "excerpt": "◉교육부공고 제2026-157호 「사립대학의 구조개선 지원에 관한 법률 시행령」제정안을 입법예고 하는데 있어, 그 이유와 주요 내용을 국민에게 미리 알려 이에 대한 의견을 듣기위하여 ‘행정절차법’ 제 41조에 따라 다음과 같 이 공고합니다. 2026년 04월 06일 교육부장관",
      "detailPath": "docs/details/gazette/gazette-2026-04-06-017_교육부_교육부공고제2026_157호_사립대학의_구조개선_지원에_관한_법률_시행령_제정안_입법예고.json"
    },
    {
      "id": "gazette-2026-04-06-018_국가보훈부_국가보훈부공고제2026_98호_국가유공자_등_예우_및_지원에_관한_법률_일부개정법률안_입법예고",
      "layer": "gazette",
      "title": "국가보훈부공고제2026-98호(「국가유공자 등 예우 및 지원에 관한 법률」 일부개정법률안 입법예고)",
      "institution": "국가보훈부",
      "date": "2026-04-06",
      "docType": "공고",
      "excerpt": "◉국가보훈부공고 제2026-98호 「국가유공자 등 예우 및 지원에 관한 법률」 일부개정법률안 입법예고를 하는데 있어, 그 이유와 주요내용을 국민에게 미리 알려 이에 대한 의견을 듣기위하여 ‘행정절차법’ 제 41조에 따라 다음 과 같이 공고합니다. 2026년 04월 06일 국가보훈부장관",
      "detailPath": "docs/details/gazette/gazette-2026-04-06-018_국가보훈부_국가보훈부공고제2026_98호_국가유공자_등_예우_및_지원에_관한_법률_일부개정법률안_입법예고.json"
    },
    {
      "id": "gazette-2026-04-06-019_국가보훈부_국가보훈부공고제2026_101호_제대군인지원에_관한_법률_시행규칙_일부개정령안_입법예고",
      "layer": "gazette",
      "title": "국가보훈부공고제2026-101호(「제대군인지원에 관한 법률 시행규칙」 일부개정령안 입법예고)",
      "institution": "국가보훈부",
      "date": "2026-04-06",
      "docType": "공고",
      "excerpt": "◉국가보훈부공고 제2026-101호 「제대군인지원에 관한 법률 시행규칙」 일부개정령안 입법예고를 하는데 있어, 그 이유와 주요내 용을 국민에게 미리 알려 이에 대한 의견을 듣기위하여 ‘행정절차법’ 제 41조에 따라 다음과 같이 공고합니다. 2026년 04월 06일 국가보훈부장관",
      "detailPath": "docs/details/gazette/gazette-2026-04-06-019_국가보훈부_국가보훈부공고제2026_101호_제대군인지원에_관한_법률_시행규칙_일부개정령안_입법예고.json"
    },
    {
      "id": "gazette-2026-04-06-020_국가유산청_국가유산청예규제27호_국가유산수리_원가계산기준_일부개정",
      "layer": "gazette",
      "title": "국가유산청예규제27호(국가유산수리 원가계산기준 일부개정)",
      "institution": "국가유산청",
      "date": "2026-04-06",
      "docType": "기타",
      "excerpt": "◉국가유산청예규 제27호 「국가유산수리 등에 관한 법률」 제7조 및 같은 법 시행령 제6조에 따라 「국가유산수리 원가계산기 준」을 다음과 같이 개정 고시합니다. 2026년 04월 06일 국가유산청장",
      "detailPath": "docs/details/gazette/gazette-2026-04-06-020_국가유산청_국가유산청예규제27호_국가유산수리_원가계산기준_일부개정.json"
    },
    {
      "id": "gazette-2026-04-06-021_국가유산청_국가유산청고시제2026_37호_국가유산수리_설계도서_작성기준_일부개정",
      "layer": "gazette",
      "title": "국가유산청고시제2026-37호(국가유산수리 설계도서 작성기준 일부개정)",
      "institution": "국가유산청",
      "date": "2026-04-06",
      "docType": "고시",
      "excerpt": "◉국가유산청고시 제2026-37호 「국가유산수리 등에 관한 법률」 제7조 및 같은 법 시행령 제6조에 따라 「국가유산수리 설계도 서 작성기준」을 다음과 같이 개정 고시합니다. 2026년 04월 06일 국가유산청장",
      "detailPath": "docs/details/gazette/gazette-2026-04-06-021_국가유산청_국가유산청고시제2026_37호_국가유산수리_설계도서_작성기준_일부개정.json"
    },
    {
      "id": "gazette-2026-04-06-022_국가유산청_국가유산청고시제2026_36호_국가유산수리업_등에_관한_관리지침_일부개정",
      "layer": "gazette",
      "title": "국가유산청고시제2026-36호(국가유산수리업 등에 관한 관리지침 일부개정)",
      "institution": "국가유산청",
      "date": "2026-04-06",
      "docType": "고시",
      "excerpt": "◉국가유산청고시 제2026-36호 「국가유산수리 등에 관한 법률」 제7조 및 같은 법 시행령 제6조에 따라 「국가유산수리업 등에 관한 관리지침」을 다음과 같이 개정 고시합니다. 2026년 04월 06일 국가유산청장",
      "detailPath": "docs/details/gazette/gazette-2026-04-06-022_국가유산청_국가유산청고시제2026_36호_국가유산수리업_등에_관한_관리지침_일부개정.json"
    },
    {
      "id": "gazette-2026-04-06-023_국가유산청_국가유산청고시제2026_0032호_전주_중앙성당_국가등록문화유산_등록_및_필수보존요소_지정_고시",
      "layer": "gazette",
      "title": "국가유산청고시제2026-0032호(「전주 중앙성당」국가등록문화유산 등록 및 필수보존요소 지정 고시)",
      "institution": "국가유산청",
      "date": "2026-04-06",
      "docType": "고시",
      "excerpt": "◉국가유산청고시 제2026-0032호 「근현대문화유산의 보존 및 활용에 관한 법률」 제6조, 제7조 및 제8조에 따라 「전주 중앙성당」 에 대한 국가등록문화유산 등록 및 필수보존요소 지정을 다음과 같이 고시합니다. 2026년 04월 06일 국가유산청장",
      "detailPath": "docs/details/gazette/gazette-2026-04-06-023_국가유산청_국가유산청고시제2026_0032호_전주_중앙성당_국가등록문화유산_등록_및_필수보존요소_지정_고시.json"
    },
    {
      "id": "gazette-2026-04-06-024_국민권익위원회_국무총리훈령제930호_중앙행정기관_소속_근로자의_공정_채용을_위한_기본_규정",
      "layer": "gazette",
      "title": "국무총리훈령제930호(중앙행정기관 소속 근로자의 공정 채용을 위한 기본 규정)",
      "institution": "국민권익위원회",
      "date": "2026-04-06",
      "docType": "훈령",
      "excerpt": "◉국무총리훈령 제930호 중앙행정기관 소속 근로자의 공정 채용을 위한 기본 규정을 다음과 같이 발령한다. 2026년 04월 06일 국 무 총 리 중앙행정기관 소속 근로자의 공정 채용을 위한 기본 규정",
      "detailPath": "docs/details/gazette/gazette-2026-04-06-024_국민권익위원회_국무총리훈령제930호_중앙행정기관_소속_근로자의_공정_채용을_위한_기본_규정.json"
    },
    {
      "id": "gazette-2026-04-07-001_과학기술정보통신부_청주전파관리소공고제2026_5호_전파사용료_독촉고지서_통지_불능에_따른_공시송달",
      "layer": "gazette",
      "title": "청주전파관리소공고제2026-5호(전파사용료 독촉고지서 통지 불능에 따른 공시송달)",
      "institution": "과학기술정보통신부",
      "date": "2026-04-07",
      "docType": "공고",
      "excerpt": "◉청주전파관리소공고 제2026-5호 전파사용료 독촉고지서(2026년 1분기 고지서)를 발송하였으나, 폐문부재 등의 사유로 반송된 시 설자에 대하여 다음과 같이 공시송달하오니 대상자는 공고문 게시기간 만료 후 10일 이내 전파사용 료를 납부하여 주시기 바랍니다. 2026년 04월 07일 청주전파관리소장",
      "detailPath": "docs/details/gazette/gazette-2026-04-07-001_과학기술정보통신부_청주전파관리소공고제2026_5호_전파사용료_독촉고지서_통지_불능에_따른_공시송달.json"
    },
    {
      "id": "gazette-2026-04-07-002_국토교통부_국토교통부령제1577호_물류시설의_개발_및_운영에_관한_법률_시행규칙_일부개정령",
      "layer": "gazette",
      "title": "국토교통부령제1577호(물류시설의 개발 및 운영에 관한 법률 시행규칙 일부개정령)",
      "institution": "국토교통부",
      "date": "2026-04-07",
      "docType": "부령",
      "excerpt": "◉국토교통부령 제1577호 물류시설의 개발 및 운영에 관한 법률 시행규칙 일부개정령을 다음과 같이 공포한다 2026년 04월 07일 국토교통부장관 물류시설의 개발 및 운영에 관한 법률 시행규칙 일부개정령",
      "detailPath": "docs/details/gazette/gazette-2026-04-07-002_국토교통부_국토교통부령제1577호_물류시설의_개발_및_운영에_관한_법률_시행규칙_일부개정령.json"
    },
    {
      "id": "gazette-2026-04-07-003_국토교통부_국토교통부령제1576호_여객자동차_운수사업법_시행규칙_일부개정령",
      "layer": "gazette",
      "title": "국토교통부령제1576호(여객자동차 운수사업법 시행규칙 일부개정령)",
      "institution": "국토교통부",
      "date": "2026-04-07",
      "docType": "부령",
      "excerpt": "◉국토교통부령 제1576호 여객자동차 운수사업법 시행규칙 일부개정령을 다음과 같이 공포한다. 2026년 04월 07일 국토교통부장관 여객자동차 운수사업법 시행규칙 일부개정령 여객자동차 운수사업법 시행규칙 일부를 다음과 같이 개정한다.",
      "detailPath": "docs/details/gazette/gazette-2026-04-07-003_국토교통부_국토교통부령제1576호_여객자동차_운수사업법_시행규칙_일부개정령.json"
    },
    {
      "id": "gazette-2026-04-07-004_국토교통부_대전지방국토관리청고시제2026_25호_도로구역_결정_변경_지형도면_변경_고시",
      "layer": "gazette",
      "title": "대전지방국토관리청고시제2026-25호(도로구역 결정(변경), 지형도면(변경) 고시)",
      "institution": "국토교통부",
      "date": "2026-04-07",
      "docType": "고시",
      "excerpt": "◉대전지방국토관리청고시 제2026-25호 “국도4호선 증약~신상 위험도로 개선공사\"에 대하여「도로법」제25조제3항, 같은 법 시행령 제24조 및 시행규칙 제6조에 따른 도로구역 결정(변경),「국토의 계획 및 이용에 관한 법률」제30조에 따른 군관리계획 결정(변경) 및 같은 법 제91조에 따른 실시계획의 고시를 아래와 같이 결정(변경), 「토지이용규제 기본법」제8조 및 같은 법 시행령 제7조제",
      "detailPath": "docs/details/gazette/gazette-2026-04-07-004_국토교통부_대전지방국토관리청고시제2026_25호_도로구역_결정_변경_지형도면_변경_고시.json"
    },
    {
      "id": "gazette-2026-04-07-005_국토교통부_국토교통부공고제2026_470호_기업도시개발_특별법_시행규칙_일부개정령안_입법예고",
      "layer": "gazette",
      "title": "국토교통부공고제2026-470호(기업도시개발 특별법 시행규칙 일부개정령안 입법예고)",
      "institution": "국토교통부",
      "date": "2026-04-07",
      "docType": "공고",
      "excerpt": "◉국토교통부공고 제2026-470호 기업도시개발 특별법 시행규칙 일부개정령안 입법예고를 하는데 있어, 그 이유와 주요내용을 국민 에게 미리 알려 이에 대한 의견을 듣기위하여 ‘행정절차법’ 제 41조에 따라 다음과 같이 공고합니다. 2026년 04월 07일 국토교통부장관",
      "detailPath": "docs/details/gazette/gazette-2026-04-07-005_국토교통부_국토교통부공고제2026_470호_기업도시개발_특별법_시행규칙_일부개정령안_입법예고.json"
    },
    {
      "id": "gazette-2026-04-07-006_국토교통부_국토교통부공고제2026_473호_도시공원_및_녹지_등에_관한_법률_시행규칙_일부개정령안_입법예고",
      "layer": "gazette",
      "title": "국토교통부공고제2026-473호(도시공원 및 녹지 등에 관한 법률 시행규칙 일부개정령안 입법예고)",
      "institution": "국토교통부",
      "date": "2026-04-07",
      "docType": "공고",
      "excerpt": "◉국토교통부공고 제2026-473호 도시공원 및 녹지 등에 관한 법률 시행규칙 일부개정령안 입법예고를 하는데 있어, 그 이유와 주요 내용을 국민에게 미리 알려 이에 대한 의견을 듣기위하여 ‘행정절차법’ 제 41조에 따라 다음과 같이 공고합니다. 2026년 04월 07일 국토교통부장관",
      "detailPath": "docs/details/gazette/gazette-2026-04-07-006_국토교통부_국토교통부공고제2026_473호_도시공원_및_녹지_등에_관한_법률_시행규칙_일부개정령안_입법예고.json"
    },
    {
      "id": "gazette-2026-04-07-007_국토교통부_국토교통부공고제2026_472호_도시공원_및_녹지_등에_관한_법률_시행령_일부개정령안_입법예고",
      "layer": "gazette",
      "title": "국토교통부공고제2026-472호(도시공원 및 녹지 등에 관한 법률 시행령 일부개정령안 입법예고)",
      "institution": "국토교통부",
      "date": "2026-04-07",
      "docType": "공고",
      "excerpt": "◉국토교통부공고 제2026-472호 도시공원 및 녹지 등에 관한 법률 시행령 일부개정령안 입법예고를 하는데 있어, 그 이유와 주요내 용을 국민에게 미리 알려 이에 대한 의견을 듣기위하여 ‘행정절차법’ 제 41조에 따라 다음과 같이 공고합니다. 2026년 04월 07일 국토교통부장관",
      "detailPath": "docs/details/gazette/gazette-2026-04-07-007_국토교통부_국토교통부공고제2026_472호_도시공원_및_녹지_등에_관한_법률_시행령_일부개정령안_입법예고.json"
    },
    {
      "id": "gazette-2026-04-07-008_국토교통부_국토교통부공고제2026_458호_여객자동차_운수사업법_시행규칙_일부개정령안_입법예고",
      "layer": "gazette",
      "title": "국토교통부공고제2026-458호(여객자동차 운수사업법 시행규칙 일부개정령안 입법예고)",
      "institution": "국토교통부",
      "date": "2026-04-07",
      "docType": "공고",
      "excerpt": "◉국토교통부공고 제2026-458호 여객자동차 운수사업법 시행규칙 일부개정령안 입법예고를 하는데 있어, 그 이유와 주요내용을 국 민에게 미리 알려 이에 대한 의견을 듣기위하여 ‘행정절차법’ 제 41조에 따라 다음과 같이 공고합 니다. 2026년 04월 07일 국토교통부장관",
      "detailPath": "docs/details/gazette/gazette-2026-04-07-008_국토교통부_국토교통부공고제2026_458호_여객자동차_운수사업법_시행규칙_일부개정령안_입법예고.json"
    },
    {
      "id": "gazette-2026-04-07-009_국토교통부_국토교통부공고제2026_457호_여객자동차_운수사업법_시행령_일부개정령안_입법예고",
      "layer": "gazette",
      "title": "국토교통부공고제2026-457호(여객자동차 운수사업법 시행령 일부개정령안 입법예고)",
      "institution": "국토교통부",
      "date": "2026-04-07",
      "docType": "공고",
      "excerpt": "◉국토교통부공고 제2026-457호 여객자동차 운수사업법 시행령 일부개정령안 입법예고를 하는데 있어, 그 이유와 주요내용을 국민 에게 미리 알려 이에 대한 의견을 듣기위하여 ‘행정절차법’ 제 41조에 따라 다음과 같이 공고합니 다. 2026년 04월 07일 국토교통부장관",
      "detailPath": "docs/details/gazette/gazette-2026-04-07-009_국토교통부_국토교통부공고제2026_457호_여객자동차_운수사업법_시행령_일부개정령안_입법예고.json"
    },
    {
      "id": "gazette-2026-04-07-010_금융위원회_총리령제2110호_금융위원회와_그_소속기관_직제_시행규칙_일부개정령_중_정정",
      "layer": "gazette",
      "title": "총리령제2110호(금융위원회와 그 소속기관 직제 시행규칙 일부개정령 중 정정)",
      "institution": "금융위원회",
      "date": "2026-04-07",
      "docType": "총리령",
      "excerpt": "○ 총리령제2110호(금융위원회와 그 소속기관 직제 시행규칙 일부개정령 중 정정) 관보 제21208호(2026. 03. 31.) 에 게재된 총리령제2110호(금융위원회와 그 소속기관 직 제 시행규칙 일부개정령) 중 오류사항이 있어 다음과 같이 정정합니다. 2026년 04월 07일 국무총리 관보내용|정정사항|비고",
      "detailPath": "docs/details/gazette/gazette-2026-04-07-010_금융위원회_총리령제2110호_금융위원회와_그_소속기관_직제_시행규칙_일부개정령_중_정정.json"
    },
    {
      "id": "gazette-2026-04-07-011_기후에너지환경부_낙동강유역환경청고시제2026_21호_하천공사시행계획_변경_고시_평강천_중곡2지구",
      "layer": "gazette",
      "title": "낙동강유역환경청고시제2026-21호(하천공사시행계획(변경) 고시(평강천 중곡2지구))",
      "institution": "기후에너지환경부",
      "date": "2026-04-07",
      "docType": "고시",
      "excerpt": "◉낙동강유역환경청고시 제2026-21호 「하천법」 제27조 규정에 의거 하천공사시행계획(변경)을 다음과 같이 고시합니다. 2026년 04월 07일 낙동강유역환경청장 하천공사시행계획(변경) 고시(평강천 중곡2지구)",
      "detailPath": "docs/details/gazette/gazette-2026-04-07-011_기후에너지환경부_낙동강유역환경청고시제2026_21호_하천공사시행계획_변경_고시_평강천_중곡2지구.json"
    },
    {
      "id": "gazette-2026-04-07-012_기후에너지환경부_낙동강유역환경청고시제2026_19호_하천공사시행계획_변경_고시_평강천_하리지구",
      "layer": "gazette",
      "title": "낙동강유역환경청고시제2026-19호(하천공사시행계획(변경) 고시(평강천 하리지구))",
      "institution": "기후에너지환경부",
      "date": "2026-04-07",
      "docType": "고시",
      "excerpt": "◉낙동강유역환경청고시 제2026-19호 「하천법」 제27조 규정에 의거 하천공사시행계획(변경)을 다음과 같이 고시합니다. 2026년 04월 07일 낙동강유역환경청장 하천공사시행계획(변경) 고시(평강천 하리지구)",
      "detailPath": "docs/details/gazette/gazette-2026-04-07-012_기후에너지환경부_낙동강유역환경청고시제2026_19호_하천공사시행계획_변경_고시_평강천_하리지구.json"
    },
    {
      "id": "gazette-2026-04-07-013_기후에너지환경부_낙동강유역환경청고시제2026_20호_하천공사시행계획_변경_고시_평강천_중곡1지구",
      "layer": "gazette",
      "title": "낙동강유역환경청고시제2026-20호(하천공사시행계획(변경) 고시(평강천 중곡1지구))",
      "institution": "기후에너지환경부",
      "date": "2026-04-07",
      "docType": "고시",
      "excerpt": "◉낙동강유역환경청고시 제2026-20호 「하천법」 제27조 규정에 의거 하천공사시행계획(변경)을 다음과 같이 고시합니다. 2026년 04월 07일 낙동강유역환경청장 하천공사시행계획(변경) 고시(평강천 중곡1지구)",
      "detailPath": "docs/details/gazette/gazette-2026-04-07-013_기후에너지환경부_낙동강유역환경청고시제2026_20호_하천공사시행계획_변경_고시_평강천_중곡1지구.json"
    },
    {
      "id": "gazette-2026-04-07-014_법무부_속초출장소고시제2026_14호_국적상실",
      "layer": "gazette",
      "title": "속초출장소고시제2026-14호(국적상실)",
      "institution": "법무부",
      "date": "2026-04-07",
      "docType": "고시",
      "excerpt": "◉속초출장소고시 제2026-14호 다음 사람들은 국적법 제15조 규정에 따라 대한민국 국적을 상실하였으므로 고시합니다. 2026년 04월 07일 춘천출입국·외국인사무소 속초출장소장 국적상실",
      "detailPath": "docs/details/gazette/gazette-2026-04-07-014_법무부_속초출장소고시제2026_14호_국적상실.json"
    },
    {
      "id": "gazette-2026-04-07-015_법무부_대구출입국_외국인사무소고시제2026_9호_국적상실신고_수리",
      "layer": "gazette",
      "title": "대구출입국.외국인사무소고시제2026-9호(국적상실신고 수리)",
      "institution": "법무부",
      "date": "2026-04-07",
      "docType": "고시",
      "excerpt": "◉대구출입국.외국인사무소고시 제2026-9호 다음 사람들은 국적법 제15조 규정에 따라 대한민국 국적을 상실하였으므로 고시합니다. 2026년 04월 07일 대구출입국·외국인사무소장 국적상실신고 수리",
      "detailPath": "docs/details/gazette/gazette-2026-04-07-015_법무부_대구출입국_외국인사무소고시제2026_9호_국적상실신고_수리.json"
    },
    {
      "id": "gazette-2026-04-07-016_식품의약품안전처_서울지방식품의약품안전청공고제2026_58호_약사법_위반업체_행정처분_통지_공고",
      "layer": "gazette",
      "title": "서울지방식품의약품안전청공고제2026-58호(약사법 위반업체 행정처분 통지 공고)",
      "institution": "식품의약품안전처",
      "date": "2026-04-07",
      "docType": "공고",
      "excerpt": "◉서울지방식품의약품안전청공고 제2026-58호 약사법 위반사실에 대하여 행정처분 통지하고자 하나, 동 내용을 송달할 수 없으므로 행정절차법 제14조 제4항의 규정에 따라 다음과 같이 공고합니다. 2026년 04월 07일 서울지방식품의약품안전청장",
      "detailPath": "docs/details/gazette/gazette-2026-04-07-016_식품의약품안전처_서울지방식품의약품안전청공고제2026_58호_약사법_위반업체_행정처분_통지_공고.json"
    },
    {
      "id": "gazette-2026-04-07-017_인사혁신처_인사혁신처공고제2026_193호_국가공무원_복무규정_일부개정령안_입법예고",
      "layer": "gazette",
      "title": "인사혁신처공고제2026-193호(「국가공무원 복무규정」 일부개정령안 입법예고)",
      "institution": "인사혁신처",
      "date": "2026-04-07",
      "docType": "공고",
      "excerpt": "◉인사혁신처공고 제2026-193호 「국가공무원 복무규정」 일부개정령안 입법예고를 하는데 있어, 그 이유와 주요내용을 국민에게 미리 알려 이에 대한 의견을 듣기위하여 ‘행정절차법’ 제 41조에 따라 다음과 같이 공고합니다. 2026년 04월 07일 인사혁신처장",
      "detailPath": "docs/details/gazette/gazette-2026-04-07-017_인사혁신처_인사혁신처공고제2026_193호_국가공무원_복무규정_일부개정령안_입법예고.json"
    },
    {
      "id": "gazette-2026-04-07-018_충청남도_천안시고시제2026_124호_동천안_일반산업단지_산업단지계획_변경_승인_및_지형도면_고시",
      "layer": "gazette",
      "title": "천안시고시제2026-124호(동천안 일반산업단지 산업단지계획(변경) 승인 및 지형도면 고시)",
      "institution": "충청남도",
      "date": "2026-04-07",
      "docType": "지방자치단체",
      "excerpt": "◉천안시고시 제2026-124호 1. 천안시 고시 제2024-516호(2024. 12. 23.)로 산업단지계획 승인 고시된 동천안 일반산업단지 에 대하여, 「산업단지 인·허가 절차 간소화를 위한 특례법」제15조에 따라 다음과 같이 산업 단지계획을 승인(변경) 고시하며, 「국토의 계획 및 이용에 관한 법률」제32조 및 「토지이용규 제 기본법」제8조에 따라 지형도면을 고시합니다. 2. 관계도면의",
      "detailPath": "docs/details/gazette/gazette-2026-04-07-018_충청남도_천안시고시제2026_124호_동천안_일반산업단지_산업단지계획_변경_승인_및_지형도면_고시.json"
    },
    {
      "id": "gazette-2026-04-07-019_충청남도_천안시고시제2026_126호_동천안_일반산업단지_관리기본계획_변경_수립_고시",
      "layer": "gazette",
      "title": "천안시고시제2026-126호(동천안 일반산업단지 관리기본계획(변경) 수립 고시)",
      "institution": "충청남도",
      "date": "2026-04-07",
      "docType": "지방자치단체",
      "excerpt": "◉천안시고시 제2026-126호 1. 「산업집적활성화 및 공장설립에 관한 법률」제33조 규정에 따라 동천안 일반산업단지 관리기 본계획(변경)을 다음과 같이 수립하여 고시합니다. 2. 관계도서의 게재는 생략하며 관계도서는 천안시 산업단지조성추진과(041-521-5467)에 비치 하고, 이해관계인과 일반인에게 보입니다.",
      "detailPath": "docs/details/gazette/gazette-2026-04-07-019_충청남도_천안시고시제2026_126호_동천안_일반산업단지_관리기본계획_변경_수립_고시.json"
    },
    {
      "id": "gazette-2026-04-07-020_해양경찰청_중부지방해양경찰청공고제2026_18호_국가채권_체납자_독촉장_반송에_따른_공시송달",
      "layer": "gazette",
      "title": "중부지방해양경찰청공고제2026-18호(국가채권 체납자 독촉장 반송에 따른 공시송달)",
      "institution": "해양경찰청",
      "date": "2026-04-07",
      "docType": "공고",
      "excerpt": "◉중부지방해양경찰청공고 제2026-18호 과태료 집행을 위한 납부독촉장 및 재산압류 안내문을 등기우편으로 송부하였으나, 폐문부재의 사 유로 반송되어 행정절차법 제14조 제4항의 규정에 의하여 아래와 같이 공시송달(공고) 합니다. 2026년 04월 07일 중부지방해양경찰청장",
      "detailPath": "docs/details/gazette/gazette-2026-04-07-020_해양경찰청_중부지방해양경찰청공고제2026_18호_국가채권_체납자_독촉장_반송에_따른_공시송달.json"
    },
    {
      "id": "gazette-2026-04-07-021_해양수산부_부산항건설사무소공고제2026_31호_항만개발사업_실시계획_신고_수리_공고",
      "layer": "gazette",
      "title": "부산항건설사무소공고제2026-31호(항만개발사업 실시계획 신고 수리 공고)",
      "institution": "해양수산부",
      "date": "2026-04-07",
      "docType": "공고",
      "excerpt": "◉부산항건설사무소공고 제2026-31호 ㈜부산도시가스에서 신청한 “나이가이부산물류센터 북컨 태양광 발전소 설치공사”에 대하여「항 만법」제10조제7항에 따라 비관리청 항만개발사업 실시계획 신고를 수리하고 다음과 같이 공고합니 다. 2026년 04월 07일 부산지방해양수산청 부산항건설사무소",
      "detailPath": "docs/details/gazette/gazette-2026-04-07-021_해양수산부_부산항건설사무소공고제2026_31호_항만개발사업_실시계획_신고_수리_공고.json"
    }
  ]
}