{
  "layer": "gazette",
  "page": 262,
  "pageSize": 100,
  "totalItems": 26139,
  "totalPages": 262,
  "items": [
    {
      "id": "gazette-2026-04-06-052_법무부_광주출입국_외국인사무소고시제2026_0016호_국적상실_취소-ff4f90365d",
      "layer": "gazette",
      "title": "광주출입국.외국인사무소고시제2026-0016호(국적상실 취소)",
      "institution": "법무부",
      "date": "2026-04-06",
      "docType": "고시",
      "excerpt": "○ 광주출입국.외국인사무소고시제2026-0016호(국적상실 취소) 관보 제21203호(2026. 03. 24.)에 게재된 광주출입국.외국인사무소고시제2026-0014호(국적상 실) 중 오류사항이 있어 취소합니다. 2026년 04월 06일 광주출입국외국인사무소장 성명|생년월일|성별|외국국적|등록기준지|한국국적 상실일|한국국적 상실원인",
      "detailPath": "docs/details/gazette/gazette-2026-04-06-052_법무부_광주출입국_외국인사무소고시제2026_0016호_국적상실_취소-ff4f90365d.json"
    },
    {
      "id": "gazette-2026-04-06-053_법무부_전주출입국_외국인사무소고시제2026_11호_국적상실-843fdf7a4d",
      "layer": "gazette",
      "title": "전주출입국.외국인사무소고시제2026-11호(국적상실)",
      "institution": "법무부",
      "date": "2026-04-06",
      "docType": "고시",
      "excerpt": "◉전주출입국.외국인사무소고시 제2026-11호 다음 사람들은 국적법 제15조 규정에 따라 대한민국 국적을 상실하였으므로 고시합니다. 2026년 04월 06일 전주출입국외국인사무소장 국적상실",
      "detailPath": "docs/details/gazette/gazette-2026-04-06-053_법무부_전주출입국_외국인사무소고시제2026_11호_국적상실-843fdf7a4d.json"
    },
    {
      "id": "gazette-2026-04-06-054_법무부_광주출입국_외국인사무소고시제2026_0017호_국적상실-bfcbb88447",
      "layer": "gazette",
      "title": "광주출입국.외국인사무소고시제2026-0017호(국적상실)",
      "institution": "법무부",
      "date": "2026-04-06",
      "docType": "고시",
      "excerpt": "◉광주출입국.외국인사무소고시 제2026-0017호 다음 사람들은 국적법 제15조 규정에 따라 대한민국 국적을 상실하였으므로 고시합니다. 2026년 04월 06일 광주출입국‧외국인사무소장 국적상실",
      "detailPath": "docs/details/gazette/gazette-2026-04-06-054_법무부_광주출입국_외국인사무소고시제2026_0017호_국적상실-bfcbb88447.json"
    },
    {
      "id": "gazette-2026-04-06-055_법무부_수원출입국_외국인청고시제2026_24호_국적취득_중_정정-b303f704e5",
      "layer": "gazette",
      "title": "수원출입국.외국인청고시제2026-24호(국적취득 중 정정)",
      "institution": "법무부",
      "date": "2026-04-06",
      "docType": "고시",
      "excerpt": "◉수원출입국.외국인청고시 제2026-24호 관보 제21208호(2026. 3. 31.)에 게재된 수원출입국·외국인청 고시 제2026-20호(국적취득) 중 오류사항이 있어 다음과 같이 정정합니다. 2026년 04월 06일 수원출입국·외국인청장",
      "detailPath": "docs/details/gazette/gazette-2026-04-06-055_법무부_수원출입국_외국인청고시제2026_24호_국적취득_중_정정-b303f704e5.json"
    },
    {
      "id": "gazette-2026-04-06-056_법무부_수원출입국_외국인청고시제2026_25호_국적상실-5f4288f25d",
      "layer": "gazette",
      "title": "수원출입국.외국인청고시제2026-25호(국적상실)",
      "institution": "법무부",
      "date": "2026-04-06",
      "docType": "고시",
      "excerpt": "◉수원출입국.외국인청고시 제2026-25호 다음 사람들은 국적법 제15조 규정에 따라 대한민국 국적을 상실하였으므로 고시합니다. 2026년 04월 06일 수원출입국·외국인청장 국적상실",
      "detailPath": "docs/details/gazette/gazette-2026-04-06-056_법무부_수원출입국_외국인청고시제2026_25호_국적상실-5f4288f25d.json"
    },
    {
      "id": "gazette-2026-04-06-057_법무부_법무부고시제2026_106호_국적회복-262889d573",
      "layer": "gazette",
      "title": "법무부고시제2026-106호(국적회복)",
      "institution": "법무부",
      "date": "2026-04-06",
      "docType": "고시",
      "excerpt": "◉법무부고시 제2026-106호 다음 사람은 국적법 제9조 규정에 따라 대한민국 국적취득(회복)을 하였기에 고시합니다. 2026년 04월 06일 법무부장관 국적회복",
      "detailPath": "docs/details/gazette/gazette-2026-04-06-057_법무부_법무부고시제2026_106호_국적회복-262889d573.json"
    },
    {
      "id": "gazette-2026-04-06-058_법무부_서울출입국_외국인청고시제2026_20호_인지에_의한_국적취득-5a490411ae",
      "layer": "gazette",
      "title": "서울출입국.외국인청고시제2026-20호(인지에 의한 국적취득)",
      "institution": "법무부",
      "date": "2026-04-06",
      "docType": "고시",
      "excerpt": "◉서울출입국.외국인청고시 제2026-20호 다음 사람들은 국적법 제3조에 따라 대한민국 국적취득신고를 수리하였기에 고시합니다. 2026년 04월 06일 서울출입국외국인청장 인지에 의한 국적취득",
      "detailPath": "docs/details/gazette/gazette-2026-04-06-058_법무부_서울출입국_외국인청고시제2026_20호_인지에_의한_국적취득-5a490411ae.json"
    },
    {
      "id": "gazette-2026-04-06-059_법무부_서울출입국_외국인청고시제2026_19호_인지에_의한_국적취득-862100e0d0",
      "layer": "gazette",
      "title": "서울출입국.외국인청고시제2026-19호(인지에 의한 국적취득)",
      "institution": "법무부",
      "date": "2026-04-06",
      "docType": "고시",
      "excerpt": "◉서울출입국.외국인청고시 제2026-19호 다음 사람들은 국적법 제3조에 따라 대한민국 국적취득신고를 수리하였기에 고시합니다. 2026년 04월 06일 서울출입국외국인청장 인지에 의한 국적취득",
      "detailPath": "docs/details/gazette/gazette-2026-04-06-059_법무부_서울출입국_외국인청고시제2026_19호_인지에_의한_국적취득-862100e0d0.json"
    },
    {
      "id": "gazette-2026-04-06-060_병무청_병무청공고제2026_42호_공직자_등의_병역사항_공개-2b67e6f592",
      "layer": "gazette",
      "title": "병무청공고제2026-42호(공직자 등의 병역사항 공개)",
      "institution": "병무청",
      "date": "2026-04-06",
      "docType": "공고",
      "excerpt": "◉병무청공고 제2026-42호 공직자 등의 병역사항 신고 및 공개에 관한 법률(법률 제19072호 2023. 6. 14.) 제8조 제1항의 규정에 의하여 병역사항 공개대상자의 병역사항을 다음과 같이 공개합니다. 2026년 04월 06일 병무청장",
      "detailPath": "docs/details/gazette/gazette-2026-04-06-060_병무청_병무청공고제2026_42호_공직자_등의_병역사항_공개-2b67e6f592.json"
    },
    {
      "id": "gazette-2026-04-06-061_산업통상부_국가기술표준원고시제2026_0063호_한국산업표준_개정_예고-ed5cbd1199",
      "layer": "gazette",
      "title": "국가기술표준원고시제2026-0063호(한국산업표준 개정 예고)",
      "institution": "산업통상부",
      "date": "2026-04-06",
      "docType": "고시",
      "excerpt": "◉국가기술표준원고시 제2026-0063호 한국산업표준을 개정함에 있어 국민, 업계 및 관련기관에 미리 알려 의견을 듣고자 그 개정사유와 주요 개정내용을 산업표준화법 제5조제1항 및 같은 법 시행령 제16조에 의하여 다음과 같이 고시합 니다. 2026년 04월 06일 국가기술표준원장",
      "detailPath": "docs/details/gazette/gazette-2026-04-06-061_산업통상부_국가기술표준원고시제2026_0063호_한국산업표준_개정_예고-ed5cbd1199.json"
    },
    {
      "id": "gazette-2026-04-06-062_식품의약품안전처_식품의약품안전처공고제2026_175호_임시마약류_지정_예고-3ea566febe",
      "layer": "gazette",
      "title": "식품의약품안전처공고제2026-175호(임시마약류 지정 예고)",
      "institution": "식품의약품안전처",
      "date": "2026-04-06",
      "docType": "공고",
      "excerpt": "◉식품의약품안전처공고 제2026-175호 「마약류 관리에 관한 법률」제5조의2에 따라 다음과 같이 임시마약류 지정을 예고합니다. 2026년 04월 06일 식품의약품안전처장 임시마약류 지정 예고",
      "detailPath": "docs/details/gazette/gazette-2026-04-06-062_식품의약품안전처_식품의약품안전처공고제2026_175호_임시마약류_지정_예고-3ea566febe.json"
    },
    {
      "id": "gazette-2026-04-06-063_정부산하기관및위원회_합천댐지사고시제2026_3호_하천점용허가고시-fe7d08ae56",
      "layer": "gazette",
      "title": "합천댐지사고시제2026-3호(하천점용허가고시)",
      "institution": "정부산하기관및위원회",
      "date": "2026-04-06",
      "docType": "고시",
      "excerpt": "◉합천댐지사고시 제2026-3호 「하천법」 제33조 제7항 및 같은 법 시행령 제38조의 규정에 따라 다음과 같이 하천점용 허가사 항을 고시합니다. 2026년 04월 06일 한국수자원공사 합천댐지사장",
      "detailPath": "docs/details/gazette/gazette-2026-04-06-063_정부산하기관및위원회_합천댐지사고시제2026_3호_하천점용허가고시-fe7d08ae56.json"
    },
    {
      "id": "gazette-2026-04-06-064_해양경찰청_서귀포해양경찰서공고제2026_3호_해양레저활동_허가필요수역_고시_일부_개정안_행정예고-27fc5e3169",
      "layer": "gazette",
      "title": "서귀포해양경찰서공고제2026-3호(해양레저활동 허가필요수역 고시 일부 개정안 행정예고)",
      "institution": "해양경찰청",
      "date": "2026-04-06",
      "docType": "공고",
      "excerpt": "◉서귀포해양경찰서공고 제2026-3호 「해양레저활동 허가필요수역 고시」를 일부 개정함에 있어 국민에게 미리 알려 의견을 듣고자 「행정절차법」 제46조에 따라 다음과 같이 공고합니다. 2026년 04월 06일 서귀포해양경찰서장",
      "detailPath": "docs/details/gazette/gazette-2026-04-06-064_해양경찰청_서귀포해양경찰서공고제2026_3호_해양레저활동_허가필요수역_고시_일부_개정안_행정예고-27fc5e3169.json"
    },
    {
      "id": "gazette-2026-04-06-065_해양수산부_국립해양측위정보원고시제2026_2호_항로표지_기능정지_로란_C_체인_포항_광주송신국_일시_기능정지-5829df5847",
      "layer": "gazette",
      "title": "국립해양측위정보원고시제2026-2호(항로표지 기능정지(로란-C 체인_ 포항·광주송신국 일시 기능정지))",
      "institution": "해양수산부",
      "date": "2026-04-06",
      "docType": "고시",
      "excerpt": "◉국립해양측위정보원고시 제2026-2호 우리 원에서 운영 중인 코리아 로란-C 체인(GRI 9930)의 포항·광주송신국이 정기 정비·점검으 로 인하여 다음과 같이 일시 기능정지됨을 「항로표지법」제16조 및 같은 법 시행규칙 제13조에 따 라 고시합니다. 2026년 04월 06일 국립해양측위정보원장",
      "detailPath": "docs/details/gazette/gazette-2026-04-06-065_해양수산부_국립해양측위정보원고시제2026_2호_항로표지_기능정지_로란_C_체인_포항_광주송신국_일시_기능정지-5829df5847.json"
    },
    {
      "id": "gazette-2026-04-06-066_행정안전부_행정안전부공고제2026_478호_10_29이태원참사_피해자_권리보장과_진상규명_및_재발방지를_위한_특별법_시행령-9fb172e150",
      "layer": "gazette",
      "title": "행정안전부공고제2026-478호(10ㆍ29이태원참사 피해자 권리보장과 진상규명 및 재발방지를 위한 특별법 시행령 일부개정령안 입법예고 중 정정)",
      "institution": "행정안전부",
      "date": "2026-04-06",
      "docType": "공고",
      "excerpt": "○ 행정안전부공고제2026-478호(10ㆍ29이태원참사 피해자 권리보장과 진상규명 및 재발방지를 위한 특별법 시행령 일부개정령안 입법예고 중 정정) 관보 제21209호(2026. 04. 01.)에 게재된 행정안전부공고제2026-456호(10ㆍ29이태원 참사 피해자 권리보장과 진상규명 및 재발방지를 위한 특별법 시행령 일부개정령안 입법예",
      "detailPath": "docs/details/gazette/gazette-2026-04-06-066_행정안전부_행정안전부공고제2026_478호_10_29이태원참사_피해자_권리보장과_진상규명_및_재발방지를_위한_특별법_시행령-9fb172e150.json"
    },
    {
      "id": "gazette-2026-04-06-067_행정안전부_상훈_39_지역균형발전_및_지역활성화_유공_자전거_등_39_정부포상_수여_행정안전부-c8c61b4ae7",
      "layer": "gazette",
      "title": "상훈(& #39;지역균형발전 및 지역활성화 유공(자전거 등)& #39; 정부포상 수여 (행정안전부))",
      "institution": "행정안전부",
      "date": "2026-04-06",
      "docType": "상훈",
      "excerpt": "'지역균형발전 및 지역활성화 유공(자전거 등)' 정부포상 수여 (주)괜찮아마을목포 홍동우 대통령표창 밭멍 김지현 대통령표창",
      "detailPath": "docs/details/gazette/gazette-2026-04-06-067_행정안전부_상훈_39_지역균형발전_및_지역활성화_유공_자전거_등_39_정부포상_수여_행정안전부-c8c61b4ae7.json"
    },
    {
      "id": "gazette-2026-04-06-068_행정안전부_상훈_39_지역균형발전_및_지역활성화_유공_섬발전_39_정부포상_수여_행정안전부-63ac71123d",
      "layer": "gazette",
      "title": "상훈(& #39;지역균형발전 및 지역활성화 유공(섬발전)& #39; 정부포상 수여 (행정안전부))",
      "institution": "행정안전부",
      "date": "2026-04-06",
      "docType": "상훈",
      "excerpt": "'지역균형발전 및 지역활성화 유공(섬발전)' 정부포상 수여 금당 가고싶은 섬 주민위원회 김미라 국민포장 경상남도 통영시 양정훈 대통령표창",
      "detailPath": "docs/details/gazette/gazette-2026-04-06-068_행정안전부_상훈_39_지역균형발전_및_지역활성화_유공_섬발전_39_정부포상_수여_행정안전부-63ac71123d.json"
    },
    {
      "id": "gazette-2026-04-06-069_행정안전부_상훈_39_지역균형발전_및_지역활성화_유공_온천산업활성화_39_정부포상_수여_행정안전부-2f44cbf27c",
      "layer": "gazette",
      "title": "상훈(& #39;지역균형발전 및 지역활성화 유공(온천산업활성화)& #39; 정부포상 수여 (행정안전부))",
      "institution": "행정안전부",
      "date": "2026-04-06",
      "docType": "상훈",
      "excerpt": "'지역균형발전 및 지역활성화 유공(온천산업활성화)' 정부포상 수여 경상북도 박병호 대통령표창 2025. 11. 6. 수여",
      "detailPath": "docs/details/gazette/gazette-2026-04-06-069_행정안전부_상훈_39_지역균형발전_및_지역활성화_유공_온천산업활성화_39_정부포상_수여_행정안전부-2f44cbf27c.json"
    },
    {
      "id": "gazette-2026-04-07-001_과학기술정보통신부_청주전파관리소공고제2026_5호_전파사용료_독촉고지서_통지_불능에_따른_공시송달-562b84f4b6",
      "layer": "gazette",
      "title": "청주전파관리소공고제2026-5호(전파사용료 독촉고지서 통지 불능에 따른 공시송달)",
      "institution": "과학기술정보통신부",
      "date": "2026-04-07",
      "docType": "공고",
      "excerpt": "◉청주전파관리소공고 제2026-5호 전파사용료 독촉고지서(2026년 1분기 고지서)를 발송하였으나, 폐문부재 등의 사유로 반송된 시 설자에 대하여 다음과 같이 공시송달하오니 대상자는 공고문 게시기간 만료 후 10일 이내 전파사용 료를 납부하여 주시기 바랍니다. 2026년 04월 07일 청주전파관리소장",
      "detailPath": "docs/details/gazette/gazette-2026-04-07-001_과학기술정보통신부_청주전파관리소공고제2026_5호_전파사용료_독촉고지서_통지_불능에_따른_공시송달-562b84f4b6.json"
    },
    {
      "id": "gazette-2026-04-07-002_국토교통부_국토교통부령제1577호_물류시설의_개발_및_운영에_관한_법률_시행규칙_일부개정령-f1859a82e3",
      "layer": "gazette",
      "title": "국토교통부령제1577호(물류시설의 개발 및 운영에 관한 법률 시행규칙 일부개정령)",
      "institution": "국토교통부",
      "date": "2026-04-07",
      "docType": "부령",
      "excerpt": "◉국토교통부령 제1577호 물류시설의 개발 및 운영에 관한 법률 시행규칙 일부개정령을 다음과 같이 공포한다 2026년 04월 07일 국토교통부장관 물류시설의 개발 및 운영에 관한 법률 시행규칙 일부개정령",
      "detailPath": "docs/details/gazette/gazette-2026-04-07-002_국토교통부_국토교통부령제1577호_물류시설의_개발_및_운영에_관한_법률_시행규칙_일부개정령-f1859a82e3.json"
    },
    {
      "id": "gazette-2026-04-07-003_국토교통부_국토교통부령제1576호_여객자동차_운수사업법_시행규칙_일부개정령-97911440ac",
      "layer": "gazette",
      "title": "국토교통부령제1576호(여객자동차 운수사업법 시행규칙 일부개정령)",
      "institution": "국토교통부",
      "date": "2026-04-07",
      "docType": "부령",
      "excerpt": "◉국토교통부령 제1576호 여객자동차 운수사업법 시행규칙 일부개정령을 다음과 같이 공포한다. 2026년 04월 07일 국토교통부장관 여객자동차 운수사업법 시행규칙 일부개정령 여객자동차 운수사업법 시행규칙 일부를 다음과 같이 개정한다.",
      "detailPath": "docs/details/gazette/gazette-2026-04-07-003_국토교통부_국토교통부령제1576호_여객자동차_운수사업법_시행규칙_일부개정령-97911440ac.json"
    },
    {
      "id": "gazette-2026-04-07-004_국토교통부_대전지방국토관리청고시제2026_25호_도로구역_결정_변경_지형도면_변경_고시-8d5c9790af",
      "layer": "gazette",
      "title": "대전지방국토관리청고시제2026-25호(도로구역 결정(변경), 지형도면(변경) 고시)",
      "institution": "국토교통부",
      "date": "2026-04-07",
      "docType": "고시",
      "excerpt": "◉대전지방국토관리청고시 제2026-25호 “국도4호선 증약~신상 위험도로 개선공사\"에 대하여「도로법」제25조제3항, 같은 법 시행령 제24조 및 시행규칙 제6조에 따른 도로구역 결정(변경),「국토의 계획 및 이용에 관한 법률」제30조에 따른 군관리계획 결정(변경) 및 같은 법 제91조에 따른 실시계획의 고시를 아래와 같이 결정(변경), 「토지이용규제 기본법」제8조 및 같은 법 시행령 제7조제",
      "detailPath": "docs/details/gazette/gazette-2026-04-07-004_국토교통부_대전지방국토관리청고시제2026_25호_도로구역_결정_변경_지형도면_변경_고시-8d5c9790af.json"
    },
    {
      "id": "gazette-2026-04-07-005_국토교통부_국토교통부공고제2026_470호_기업도시개발_특별법_시행규칙_일부개정령안_입법예고-d422748e0f",
      "layer": "gazette",
      "title": "국토교통부공고제2026-470호(기업도시개발 특별법 시행규칙 일부개정령안 입법예고)",
      "institution": "국토교통부",
      "date": "2026-04-07",
      "docType": "공고",
      "excerpt": "◉국토교통부공고 제2026-470호 기업도시개발 특별법 시행규칙 일부개정령안 입법예고를 하는데 있어, 그 이유와 주요내용을 국민 에게 미리 알려 이에 대한 의견을 듣기위하여 ‘행정절차법’ 제 41조에 따라 다음과 같이 공고합니다. 2026년 04월 07일 국토교통부장관",
      "detailPath": "docs/details/gazette/gazette-2026-04-07-005_국토교통부_국토교통부공고제2026_470호_기업도시개발_특별법_시행규칙_일부개정령안_입법예고-d422748e0f.json"
    },
    {
      "id": "gazette-2026-04-07-006_국토교통부_국토교통부공고제2026_473호_도시공원_및_녹지_등에_관한_법률_시행규칙_일부개정령안_입법예고-03c9cad739",
      "layer": "gazette",
      "title": "국토교통부공고제2026-473호(도시공원 및 녹지 등에 관한 법률 시행규칙 일부개정령안 입법예고)",
      "institution": "국토교통부",
      "date": "2026-04-07",
      "docType": "공고",
      "excerpt": "◉국토교통부공고 제2026-473호 도시공원 및 녹지 등에 관한 법률 시행규칙 일부개정령안 입법예고를 하는데 있어, 그 이유와 주요 내용을 국민에게 미리 알려 이에 대한 의견을 듣기위하여 ‘행정절차법’ 제 41조에 따라 다음과 같이 공고합니다. 2026년 04월 07일 국토교통부장관",
      "detailPath": "docs/details/gazette/gazette-2026-04-07-006_국토교통부_국토교통부공고제2026_473호_도시공원_및_녹지_등에_관한_법률_시행규칙_일부개정령안_입법예고-03c9cad739.json"
    },
    {
      "id": "gazette-2026-04-07-007_국토교통부_국토교통부공고제2026_472호_도시공원_및_녹지_등에_관한_법률_시행령_일부개정령안_입법예고-9a1a4dbfcf",
      "layer": "gazette",
      "title": "국토교통부공고제2026-472호(도시공원 및 녹지 등에 관한 법률 시행령 일부개정령안 입법예고)",
      "institution": "국토교통부",
      "date": "2026-04-07",
      "docType": "공고",
      "excerpt": "◉국토교통부공고 제2026-472호 도시공원 및 녹지 등에 관한 법률 시행령 일부개정령안 입법예고를 하는데 있어, 그 이유와 주요내 용을 국민에게 미리 알려 이에 대한 의견을 듣기위하여 ‘행정절차법’ 제 41조에 따라 다음과 같이 공고합니다. 2026년 04월 07일 국토교통부장관",
      "detailPath": "docs/details/gazette/gazette-2026-04-07-007_국토교통부_국토교통부공고제2026_472호_도시공원_및_녹지_등에_관한_법률_시행령_일부개정령안_입법예고-9a1a4dbfcf.json"
    },
    {
      "id": "gazette-2026-04-07-008_국토교통부_국토교통부공고제2026_458호_여객자동차_운수사업법_시행규칙_일부개정령안_입법예고-ebc46348b2",
      "layer": "gazette",
      "title": "국토교통부공고제2026-458호(여객자동차 운수사업법 시행규칙 일부개정령안 입법예고)",
      "institution": "국토교통부",
      "date": "2026-04-07",
      "docType": "공고",
      "excerpt": "◉국토교통부공고 제2026-458호 여객자동차 운수사업법 시행규칙 일부개정령안 입법예고를 하는데 있어, 그 이유와 주요내용을 국 민에게 미리 알려 이에 대한 의견을 듣기위하여 ‘행정절차법’ 제 41조에 따라 다음과 같이 공고합 니다. 2026년 04월 07일 국토교통부장관",
      "detailPath": "docs/details/gazette/gazette-2026-04-07-008_국토교통부_국토교통부공고제2026_458호_여객자동차_운수사업법_시행규칙_일부개정령안_입법예고-ebc46348b2.json"
    },
    {
      "id": "gazette-2026-04-07-009_국토교통부_국토교통부공고제2026_457호_여객자동차_운수사업법_시행령_일부개정령안_입법예고-18259799e4",
      "layer": "gazette",
      "title": "국토교통부공고제2026-457호(여객자동차 운수사업법 시행령 일부개정령안 입법예고)",
      "institution": "국토교통부",
      "date": "2026-04-07",
      "docType": "공고",
      "excerpt": "◉국토교통부공고 제2026-457호 여객자동차 운수사업법 시행령 일부개정령안 입법예고를 하는데 있어, 그 이유와 주요내용을 국민 에게 미리 알려 이에 대한 의견을 듣기위하여 ‘행정절차법’ 제 41조에 따라 다음과 같이 공고합니 다. 2026년 04월 07일 국토교통부장관",
      "detailPath": "docs/details/gazette/gazette-2026-04-07-009_국토교통부_국토교통부공고제2026_457호_여객자동차_운수사업법_시행령_일부개정령안_입법예고-18259799e4.json"
    },
    {
      "id": "gazette-2026-04-07-010_금융위원회_총리령제2110호_금융위원회와_그_소속기관_직제_시행규칙_일부개정령_중_정정-3e16edd411",
      "layer": "gazette",
      "title": "총리령제2110호(금융위원회와 그 소속기관 직제 시행규칙 일부개정령 중 정정)",
      "institution": "금융위원회",
      "date": "2026-04-07",
      "docType": "총리령",
      "excerpt": "○ 총리령제2110호(금융위원회와 그 소속기관 직제 시행규칙 일부개정령 중 정정) 관보 제21208호(2026. 03. 31.) 에 게재된 총리령제2110호(금융위원회와 그 소속기관 직 제 시행규칙 일부개정령) 중 오류사항이 있어 다음과 같이 정정합니다. 2026년 04월 07일 국무총리 관보내용|정정사항|비고",
      "detailPath": "docs/details/gazette/gazette-2026-04-07-010_금융위원회_총리령제2110호_금융위원회와_그_소속기관_직제_시행규칙_일부개정령_중_정정-3e16edd411.json"
    },
    {
      "id": "gazette-2026-04-07-011_기후에너지환경부_낙동강유역환경청고시제2026_21호_하천공사시행계획_변경_고시_평강천_중곡2지구-681d7fbc7a",
      "layer": "gazette",
      "title": "낙동강유역환경청고시제2026-21호(하천공사시행계획(변경) 고시(평강천 중곡2지구))",
      "institution": "기후에너지환경부",
      "date": "2026-04-07",
      "docType": "고시",
      "excerpt": "◉낙동강유역환경청고시 제2026-21호 「하천법」 제27조 규정에 의거 하천공사시행계획(변경)을 다음과 같이 고시합니다. 2026년 04월 07일 낙동강유역환경청장 하천공사시행계획(변경) 고시(평강천 중곡2지구)",
      "detailPath": "docs/details/gazette/gazette-2026-04-07-011_기후에너지환경부_낙동강유역환경청고시제2026_21호_하천공사시행계획_변경_고시_평강천_중곡2지구-681d7fbc7a.json"
    },
    {
      "id": "gazette-2026-04-07-012_기후에너지환경부_낙동강유역환경청고시제2026_19호_하천공사시행계획_변경_고시_평강천_하리지구-f7bb9f34d8",
      "layer": "gazette",
      "title": "낙동강유역환경청고시제2026-19호(하천공사시행계획(변경) 고시(평강천 하리지구))",
      "institution": "기후에너지환경부",
      "date": "2026-04-07",
      "docType": "고시",
      "excerpt": "◉낙동강유역환경청고시 제2026-19호 「하천법」 제27조 규정에 의거 하천공사시행계획(변경)을 다음과 같이 고시합니다. 2026년 04월 07일 낙동강유역환경청장 하천공사시행계획(변경) 고시(평강천 하리지구)",
      "detailPath": "docs/details/gazette/gazette-2026-04-07-012_기후에너지환경부_낙동강유역환경청고시제2026_19호_하천공사시행계획_변경_고시_평강천_하리지구-f7bb9f34d8.json"
    },
    {
      "id": "gazette-2026-04-07-013_기후에너지환경부_낙동강유역환경청고시제2026_20호_하천공사시행계획_변경_고시_평강천_중곡1지구-16e32f2808",
      "layer": "gazette",
      "title": "낙동강유역환경청고시제2026-20호(하천공사시행계획(변경) 고시(평강천 중곡1지구))",
      "institution": "기후에너지환경부",
      "date": "2026-04-07",
      "docType": "고시",
      "excerpt": "◉낙동강유역환경청고시 제2026-20호 「하천법」 제27조 규정에 의거 하천공사시행계획(변경)을 다음과 같이 고시합니다. 2026년 04월 07일 낙동강유역환경청장 하천공사시행계획(변경) 고시(평강천 중곡1지구)",
      "detailPath": "docs/details/gazette/gazette-2026-04-07-013_기후에너지환경부_낙동강유역환경청고시제2026_20호_하천공사시행계획_변경_고시_평강천_중곡1지구-16e32f2808.json"
    },
    {
      "id": "gazette-2026-04-07-014_법무부_속초출장소고시제2026_14호_국적상실-3b7d86e0f2",
      "layer": "gazette",
      "title": "속초출장소고시제2026-14호(국적상실)",
      "institution": "법무부",
      "date": "2026-04-07",
      "docType": "고시",
      "excerpt": "◉속초출장소고시 제2026-14호 다음 사람들은 국적법 제15조 규정에 따라 대한민국 국적을 상실하였으므로 고시합니다. 2026년 04월 07일 춘천출입국·외국인사무소 속초출장소장 국적상실",
      "detailPath": "docs/details/gazette/gazette-2026-04-07-014_법무부_속초출장소고시제2026_14호_국적상실-3b7d86e0f2.json"
    },
    {
      "id": "gazette-2026-04-07-015_법무부_대구출입국_외국인사무소고시제2026_9호_국적상실신고_수리-9b534472ad",
      "layer": "gazette",
      "title": "대구출입국.외국인사무소고시제2026-9호(국적상실신고 수리)",
      "institution": "법무부",
      "date": "2026-04-07",
      "docType": "고시",
      "excerpt": "◉대구출입국.외국인사무소고시 제2026-9호 다음 사람들은 국적법 제15조 규정에 따라 대한민국 국적을 상실하였으므로 고시합니다. 2026년 04월 07일 대구출입국·외국인사무소장 국적상실신고 수리",
      "detailPath": "docs/details/gazette/gazette-2026-04-07-015_법무부_대구출입국_외국인사무소고시제2026_9호_국적상실신고_수리-9b534472ad.json"
    },
    {
      "id": "gazette-2026-04-07-016_식품의약품안전처_서울지방식품의약품안전청공고제2026_58호_약사법_위반업체_행정처분_통지_공고-80b2f77ac9",
      "layer": "gazette",
      "title": "서울지방식품의약품안전청공고제2026-58호(약사법 위반업체 행정처분 통지 공고)",
      "institution": "식품의약품안전처",
      "date": "2026-04-07",
      "docType": "공고",
      "excerpt": "◉서울지방식품의약품안전청공고 제2026-58호 약사법 위반사실에 대하여 행정처분 통지하고자 하나, 동 내용을 송달할 수 없으므로 행정절차법 제14조 제4항의 규정에 따라 다음과 같이 공고합니다. 2026년 04월 07일 서울지방식품의약품안전청장",
      "detailPath": "docs/details/gazette/gazette-2026-04-07-016_식품의약품안전처_서울지방식품의약품안전청공고제2026_58호_약사법_위반업체_행정처분_통지_공고-80b2f77ac9.json"
    },
    {
      "id": "gazette-2026-04-07-017_인사혁신처_인사혁신처공고제2026_193호_국가공무원_복무규정_일부개정령안_입법예고-8a5e45887b",
      "layer": "gazette",
      "title": "인사혁신처공고제2026-193호(「국가공무원 복무규정」 일부개정령안 입법예고)",
      "institution": "인사혁신처",
      "date": "2026-04-07",
      "docType": "공고",
      "excerpt": "◉인사혁신처공고 제2026-193호 「국가공무원 복무규정」 일부개정령안 입법예고를 하는데 있어, 그 이유와 주요내용을 국민에게 미리 알려 이에 대한 의견을 듣기위하여 ‘행정절차법’ 제 41조에 따라 다음과 같이 공고합니다. 2026년 04월 07일 인사혁신처장",
      "detailPath": "docs/details/gazette/gazette-2026-04-07-017_인사혁신처_인사혁신처공고제2026_193호_국가공무원_복무규정_일부개정령안_입법예고-8a5e45887b.json"
    },
    {
      "id": "gazette-2026-04-07-018_충청남도_천안시고시제2026_124호_동천안_일반산업단지_산업단지계획_변경_승인_및_지형도면_고시-3f3d228b07",
      "layer": "gazette",
      "title": "천안시고시제2026-124호(동천안 일반산업단지 산업단지계획(변경) 승인 및 지형도면 고시)",
      "institution": "충청남도",
      "date": "2026-04-07",
      "docType": "지방자치단체",
      "excerpt": "◉천안시고시 제2026-124호 1. 천안시 고시 제2024-516호(2024. 12. 23.)로 산업단지계획 승인 고시된 동천안 일반산업단지 에 대하여, 「산업단지 인·허가 절차 간소화를 위한 특례법」제15조에 따라 다음과 같이 산업 단지계획을 승인(변경) 고시하며, 「국토의 계획 및 이용에 관한 법률」제32조 및 「토지이용규 제 기본법」제8조에 따라 지형도면을 고시합니다. 2. 관계도면의",
      "detailPath": "docs/details/gazette/gazette-2026-04-07-018_충청남도_천안시고시제2026_124호_동천안_일반산업단지_산업단지계획_변경_승인_및_지형도면_고시-3f3d228b07.json"
    },
    {
      "id": "gazette-2026-04-07-019_충청남도_천안시고시제2026_126호_동천안_일반산업단지_관리기본계획_변경_수립_고시-276f18ae17",
      "layer": "gazette",
      "title": "천안시고시제2026-126호(동천안 일반산업단지 관리기본계획(변경) 수립 고시)",
      "institution": "충청남도",
      "date": "2026-04-07",
      "docType": "지방자치단체",
      "excerpt": "◉천안시고시 제2026-126호 1. 「산업집적활성화 및 공장설립에 관한 법률」제33조 규정에 따라 동천안 일반산업단지 관리기 본계획(변경)을 다음과 같이 수립하여 고시합니다. 2. 관계도서의 게재는 생략하며 관계도서는 천안시 산업단지조성추진과(041-521-5467)에 비치 하고, 이해관계인과 일반인에게 보입니다.",
      "detailPath": "docs/details/gazette/gazette-2026-04-07-019_충청남도_천안시고시제2026_126호_동천안_일반산업단지_관리기본계획_변경_수립_고시-276f18ae17.json"
    },
    {
      "id": "gazette-2026-04-07-020_해양경찰청_중부지방해양경찰청공고제2026_18호_국가채권_체납자_독촉장_반송에_따른_공시송달-62e6a08844",
      "layer": "gazette",
      "title": "중부지방해양경찰청공고제2026-18호(국가채권 체납자 독촉장 반송에 따른 공시송달)",
      "institution": "해양경찰청",
      "date": "2026-04-07",
      "docType": "공고",
      "excerpt": "◉중부지방해양경찰청공고 제2026-18호 과태료 집행을 위한 납부독촉장 및 재산압류 안내문을 등기우편으로 송부하였으나, 폐문부재의 사 유로 반송되어 행정절차법 제14조 제4항의 규정에 의하여 아래와 같이 공시송달(공고) 합니다. 2026년 04월 07일 중부지방해양경찰청장",
      "detailPath": "docs/details/gazette/gazette-2026-04-07-020_해양경찰청_중부지방해양경찰청공고제2026_18호_국가채권_체납자_독촉장_반송에_따른_공시송달-62e6a08844.json"
    },
    {
      "id": "gazette-2026-04-07-021_해양수산부_부산항건설사무소공고제2026_31호_항만개발사업_실시계획_신고_수리_공고-766b9d33b9",
      "layer": "gazette",
      "title": "부산항건설사무소공고제2026-31호(항만개발사업 실시계획 신고 수리 공고)",
      "institution": "해양수산부",
      "date": "2026-04-07",
      "docType": "공고",
      "excerpt": "◉부산항건설사무소공고 제2026-31호 ㈜부산도시가스에서 신청한 “나이가이부산물류센터 북컨 태양광 발전소 설치공사”에 대하여「항 만법」제10조제7항에 따라 비관리청 항만개발사업 실시계획 신고를 수리하고 다음과 같이 공고합니 다. 2026년 04월 07일 부산지방해양수산청 부산항건설사무소",
      "detailPath": "docs/details/gazette/gazette-2026-04-07-021_해양수산부_부산항건설사무소공고제2026_31호_항만개발사업_실시계획_신고_수리_공고-766b9d33b9.json"
    }
  ]
}