{
  "layer": "press",
  "page": 342,
  "pageSize": 100,
  "totalItems": 34134,
  "totalPages": 342,
  "items": [
    {
      "id": "press-2026-04-08-067_국무조정실_보도자료_범정부생명지킴추진본부_충남지역_종교계_자살예방_협력_간담회_개최",
      "layer": "press",
      "title": "[보도자료] 범정부생명지킴추진본부, 충남지역 종교계 자살예방 협력 간담회 개최",
      "institution": "국무조정실",
      "date": "2026-04-08",
      "docType": "brief",
      "excerpt": "범정부 생명지킴추진본부, 충남지역 종교관계자와 '자살예방 협력' 간담회 개최 - 4. 8.(수), 생명지킴추진본부-충남지역 종교계에 자살예방스티커 배포 및 성직자 자살예방 활동 참여 협의 □ 국무조정실 범정부 생명지킴추진본부(본부장 송민섭)는 4월 8일(수), 충남도청 회의실에서 충남지역 종교계 관계자와 함께 자살 예방과 생명존중 문화 확산을 위한 업무 협력 간담회를 개최하였다. □ 이번 간",
      "detailPath": "docs/details/press/press-2026-04-08-067_국무조정실_보도자료_범정부생명지킴추진본부_충남지역_종교계_자살예방_협력_간담회_개최.json"
    },
    {
      "id": "press-2026-04-08-068_재정경제부_국유재산_활용_수도권_주택공급_1호_사업_강서_군부지_현장_방문",
      "layer": "press",
      "title": "국유재산 활용 수도권 주택공급 1호 사업 강서 군부지 현장 방문",
      "institution": "재정경제부",
      "date": "2026-04-08",
      "docType": "brief",
      "excerpt": "허 장 재정경제부 제2차관은4월8일(수),서울특별시 강서구 공항동 소재 유휴 군부지 개발 현장을 방문하였습니다. 자세한 내용은 첨부파일을 참고하여 주시기 바랍니다. 문의. 재정경제부 국유재산정책관 국유재산개발과 이재혁 (044-215-5243)",
      "detailPath": "docs/details/press/press-2026-04-08-068_재정경제부_국유재산_활용_수도권_주택공급_1호_사업_강서_군부지_현장_방문.json"
    },
    {
      "id": "press-2026-04-08-069_농림축산식품부_국민_대표_먹거리_돼지고기_공급_가격_인하_정부_업계_소통_협력으로_민생_물가안정에_앞장",
      "layer": "press",
      "title": "국민 대표 먹거리, 돼지고기 공급 가격 인하… 정부-업계 소통&middot;협력으로 민생 물가안정에 앞장",
      "institution": "농림축산식품부",
      "date": "2026-04-08",
      "docType": "brief",
      "excerpt": "농림축산식품부(장관 송미령, 이하 '농식품부')는 최근 중동 상황으로 인한 원자재 가격의 상승 압박이 이어지고 있는 가운데, 소비자 부담을 줄이기 위해 육가공업계와 소통·협력한 결과 돼지고기 뒷다리살, 삼겹살, 목살 등의 공급 가격이 4월중 인하된다고 밝혔다. 대표적인 국민 먹거리 중 하나인 돼지고기의 이번 공급 가격 인하는 봄철 나들이 등 수요 증가 시기에 소비자 부담 완화를 위해 육가공업",
      "detailPath": "docs/details/press/press-2026-04-08-069_농림축산식품부_국민_대표_먹거리_돼지고기_공급_가격_인하_정부_업계_소통_협력으로_민생_물가안정에_앞장.json"
    },
    {
      "id": "press-2026-04-08-070_고용노동부_공짜노동_근절을_위한포괄임금_오남용_방지_지도_지침_4월_9일부터_시행",
      "layer": "press",
      "title": "「공짜노동 근절을 위한포괄임금 오남용 방지 지도 지침」 4월 9일부터 시행",
      "institution": "고용노동부",
      "date": "2026-04-08",
      "docType": "brief",
      "excerpt": "고용노동부(장관 김영훈)는 4월 9일 현장의 포괄임금 오남용 관행을 조속히 개선하기 위해 「공짜노동 근절을 위한 포괄임금 오남용 방지 지도 지침(이하 '지도지침')」을 발표했다. 노사정 및 전문가 협의체인 「실노동시간 단축 로드맵 추진단」은 지난해 12월 30일 포괄임금 오남용 방지를 위한 제도개선에 합의하고 노사정 공동선언 및 로드맵 추진 과제를 발표하였다. 노사정이 현장의 불합리한 포괄임",
      "detailPath": "docs/details/press/press-2026-04-08-070_고용노동부_공짜노동_근절을_위한포괄임금_오남용_방지_지도_지침_4월_9일부터_시행.json"
    },
    {
      "id": "press-2026-04-08-071_고용노동부_안전보건공단_26년_기술지원규정_KOSHA_GUIDE_대대적_정비_추진_새로운_위험_대응",
      "layer": "press",
      "title": "안전보건공단, '26년 기술지원규정(KOSHA GUIDE) 대대적 정비 추진... 새로운 위험 대응",
      "institution": "고용노동부",
      "date": "2026-04-08",
      "docType": "brief",
      "excerpt": "- 신산업·신기술 반영 및 현장 활용도 제고를 위한 351건 정비 추진 - 한국산업안전보건공단(KOSHA, 이사장 김현중, 이하 공단)은 '26년 4월 8일 산업안전·보건 표준제정위원회의 심의·의결을 거쳐 '26년 기술지원규정('KOSHA GUIDE') 정비계획을 총 351건(제정 8건, 개정 263건, 폐지 79건)으로 확정하고 본격적인 정비 작업에 착수한다고 밝혔다. 공단은 각계 전문가로",
      "detailPath": "docs/details/press/press-2026-04-08-071_고용노동부_안전보건공단_26년_기술지원규정_KOSHA_GUIDE_대대적_정비_추진_새로운_위험_대응.json"
    },
    {
      "id": "press-2026-04-08-072_고용노동부_한국기술교육대_장기현장실습_IPP_학생들_현장_실무역량_뛰어나_기업에_큰_도움",
      "layer": "press",
      "title": "&quot;한국기술교육대 장기현장실습(IPP) 학생들 현장 실무역량 뛰어나 기업에 큰 도움&quot;",
      "institution": "고용노동부",
      "date": "2026-04-08",
      "docType": "brief",
      "excerpt": "- IPP(장기현장실습) 참여 기업들 호평...\"학생이 근로자 지원프로그램 직접 설계\" - 8일(수) 우수기업 및 학생 시상식, 졸업생 절반 이상 IPP '취업률 1위' 원동력 \"한국기술교육대 학생들의 가장 큰 차별점은 탁월한 현업 적응력과 우수한 실무역량입니다. 6개월이라는 기간 동안 조직에 빠르게 융화되어 묵직한 존재감을 보여주었습니다. 특히, 직원들의 스트레스 관리를 위한 EAP(근로자",
      "detailPath": "docs/details/press/press-2026-04-08-072_고용노동부_한국기술교육대_장기현장실습_IPP_학생들_현장_실무역량_뛰어나_기업에_큰_도움.json"
    },
    {
      "id": "press-2026-04-08-073_고용노동부_참고_고용노동부_판단지원위원회_자문_거쳐_원청의_사용자성_첫_판단_노동부_지침에_따라_실질적이고_구체적인_지배_결정_여부에_따라_사용자성_인정_",
      "layer": "press",
      "title": "(참고) 고용노동부, 판단지원위원회 자문 거쳐 원청의 사용자성 첫 판단, 노동부 지침에 따라 실질적이고 구체적인 지배&middot;결정 여부에 따라 사용자성 인정 갈려",
      "institution": "고용노동부",
      "date": "2026-04-08",
      "docType": "brief",
      "excerpt": "고용노동부는 4.8. 단체교섭 판단지원위원회의 자문을 거쳐 처음으로 원청의 노동조합법상 사용자성 여부를 판단하였다. 이번 판단한 사항은 신청인의 주장에 기초하여 추가 자료 제출을 요구하고, 노동조합 의견을 청취하는 등 관련 사실관계를 고려하여 결정하였다. 단체교섭 판단지원위원회는 노동조합법 제2조제2호 후단의 사용자에 해당하는지 여부를 판단함에 있어서 ①노동부가 마련한「개정 노동조합법 해석지",
      "detailPath": "docs/details/press/press-2026-04-08-073_고용노동부_참고_고용노동부_판단지원위원회_자문_거쳐_원청의_사용자성_첫_판단_노동부_지침에_따라_실질적이고_구체적인_지배_결정_여부에_따라_사용자성_인정_.json"
    },
    {
      "id": "press-2026-04-08-074_산림청_민관_협력으로_숲을_되살리다_북부지방산림청_삼천리_청량산_도시숲_가꾸기_행사_개최",
      "layer": "press",
      "title": "&quot;민관 협력으로 숲을 되살리다&quot;… 북부지방산림청&middot;㈜삼천리, 청량산 도시숲 가꾸기 행사 개최",
      "institution": "산림청",
      "date": "2026-04-08",
      "docType": "brief",
      "excerpt": "\"민관 협력으로 숲을 되살리다\"… 북부지방산림청·㈜삼천리, 청량산 도시숲 가꾸기 행사 개최 - ESG 협력으로 훼손지 복원·보행로 정비… 탄소중립 실현·산림복지 확대 북부지방산림청(청장 송준호)은 4월 8일 인천광역시 연수구 일원에서 ㈜삼천리와 기업 ESG 협력의 일환으로 '청량산 도시숲 가꾸기' 행사를 실시했다고 밝혔다. 이날 행사에는 북부지방산림청과 ㈜삼천리 임직원 약 30명이 참여해 훼",
      "detailPath": "docs/details/press/press-2026-04-08-074_산림청_민관_협력으로_숲을_되살리다_북부지방산림청_삼천리_청량산_도시숲_가꾸기_행사_개최.json"
    },
    {
      "id": "press-2026-04-08-075_산림청_봄을_물들이는_철쭉_개화_시작",
      "layer": "press",
      "title": "봄을 물들이는 철쭉, 개화 시작",
      "institution": "산림청",
      "date": "2026-04-08",
      "docType": "brief",
      "excerpt": "- 4월 8일, 경남수목원에서 산철쭉 개화 시작 - 최근 기온 상승 영향으로 작년 대비 10일 빠른 개화 산림청 국립수목원(원장 임영석)은 봄을 대표하는 꽃인 산철쭉의 개화가 4월 8일(수) 시작되었다고 밝혔다. 올해 산철쭉 개화는 최근 이어진 온화한 기온의 영향으로, 경남 지역 기준 작년보다 약 10일 빠른 것으로 나타났다. 진주시, 부산광역시 등에서 개화가 진행 중이며, 중부지역에서도 순",
      "detailPath": "docs/details/press/press-2026-04-08-075_산림청_봄을_물들이는_철쭉_개화_시작.json"
    },
    {
      "id": "press-2026-04-08-076_공정거래위원회_공정거래위원장_EBS_스페이스_공감_제작_현장_방문",
      "layer": "press",
      "title": "공정거래위원장, EBS 스페이스 공감 제작 현장 방문",
      "institution": "공정거래위원회",
      "date": "2026-04-08",
      "docType": "brief",
      "excerpt": "공정거래위원장, 3년 만에 재개된 EBS 스페이스 공감 제작 현장 방문 - 중단되었던 '무료 라이브 공연', 공정위의 구글 유튜브 동의의결로 되살아나 - 주병기 공정거래위원장(이하 '위원장')은 4월 8일(수) EBS 스페이스홀(경기도 고양시)을 방문하여 EBS 음악 프로그램 '스페이스 공감' 제작 현장을 살펴보고 EBS 관계자들과 간담회를 가졌다.",
      "detailPath": "docs/details/press/press-2026-04-08-076_공정거래위원회_공정거래위원장_EBS_스페이스_공감_제작_현장_방문.json"
    },
    {
      "id": "press-2026-04-08-077_재정경제부_재정경제부_중동_상황_관련_석유수입기업_애로사항_청취_및_금융지원_점검",
      "layer": "press",
      "title": "재정경제부, 중동 상황 관련 석유수입기업 애로사항 청취 및 금융지원 점검",
      "institution": "재정경제부",
      "date": "2026-04-08",
      "docType": "brief",
      "excerpt": "문지성 국제경제관리관은 4월 8일(수) 우리 석유수입기업 및 한국수출입은행, 한국석유공사와 함께 석유수입기업 금융지원 점검회의를 개최하였습니다. 자세한 내용은 첨부파일을 참고하여 주시기 바랍니다. 문의. 재정경제부 대외경제국 대외경제총괄과 안승현 (044-215-7612)",
      "detailPath": "docs/details/press/press-2026-04-08-077_재정경제부_재정경제부_중동_상황_관련_석유수입기업_애로사항_청취_및_금융지원_점검.json"
    },
    {
      "id": "press-2026-04-08-078_법무부_국내_유일_여성_전담_안산소년분류심사원_운영_개시",
      "layer": "press",
      "title": "국내 유일 여성 전담 '안산소년분류심사원' 운영 개시",
      "institution": "법무부",
      "date": "2026-04-08",
      "docType": "brief",
      "excerpt": "국내 유일 여성 전담'안산소년분류심사원'운영 개시 - 소년원·소년분류심사원 과밀수용 해소 위한 첫 번째 성과 - 법무부(장관 정성호)는 서울소년분류심사원의 고질적인 과밀수용을 해소하기 위해 국내 유일의 여성 전담 기관인 안산소년분류심사원*을 신설하여 4월 6일(월)부터 본격적인 운영을 개시하였습니다. * 「소년법」 제18조에 따라 소년부 판사가 사건을 조사 또는 심리하는데 필요하다고 인정하는",
      "detailPath": "docs/details/press/press-2026-04-08-078_법무부_국내_유일_여성_전담_안산소년분류심사원_운영_개시.json"
    },
    {
      "id": "press-2026-04-08-079_농림축산식품부_미생물_산업_혁신을_이끌_공유_공장_문_연다",
      "layer": "press",
      "title": "미생물 산업 혁신을 이끌 '공유 공장' 문 연다",
      "institution": "농림축산식품부",
      "date": "2026-04-08",
      "docType": "brief",
      "excerpt": "농림축산식품부(장관 송미령, 이하 '농식품부')는 4월 8일(수) 전북 정읍에서 개최된 '농축산용 미생물산업 공유 인프라 개소식'에서 그린바이오 주요 분야인 농축산 미생물 제품 개발과 사업화를 지원하는 '농축산용 미생물산업 공유 인프라'를 구축했다고 밝혔다. * 그린바이오 6대 분야 : 미생물, 종자, 동물용의약품, 곤충, 천연물, 식품소재 농축산 미생물 산업은 바이오 농약·비료, 사료첨가제",
      "detailPath": "docs/details/press/press-2026-04-08-079_농림축산식품부_미생물_산업_혁신을_이끌_공유_공장_문_연다.json"
    },
    {
      "id": "press-2026-04-08-080_개인정보보호위원회_개인정보위_전분야_마이데이터_개인정보관리_전문기관_운영협의회_개최",
      "layer": "press",
      "title": "개인정보위, 전분야 마이데이터 개인정보관리 전문기관 운영협의회 개최",
      "institution": "개인정보보호위원회",
      "date": "2026-04-08",
      "docType": "brief",
      "excerpt": "개인정보위, 전분야 마이데이터 개인정보관리 전문기관 운영협의회 개최 - 본인정보 다운로드·개인정보저장소(PDS) 관리 등 현장 의견 수렴 개인정보보호위원회(위원장 송경희, 이하 '개인정보위')는 본인전송요구권 확대 시행에 따른 현장 소통을 강화하고 마이데이터 서비스 활성화를 논의하기 위해 4월 8일(수) 서울 종로구 HJ 비즈니스센터에서 '개인정보관리 전문기관 운영협의회'를 개최하였다. 이번",
      "detailPath": "docs/details/press/press-2026-04-08-080_개인정보보호위원회_개인정보위_전분야_마이데이터_개인정보관리_전문기관_운영협의회_개최.json"
    },
    {
      "id": "press-2026-04-08-081_중소벤처기업부_개정_노동조합법_현장_혼선_없이_안착하도록_중기부_중기중앙회_공동_설명회_개최",
      "layer": "press",
      "title": "&quot;개정 노동조합법, 현장 혼선 없이 안착하도록&quot; 중기부&middot;중기중앙회, 공동 설명회 개최",
      "institution": "중소벤처기업부",
      "date": "2026-04-08",
      "docType": "brief",
      "excerpt": "중소벤처기업부(장관 한성숙, 이하 중기부)와 중소기업중앙회(회장 김기문, 이하 중기중앙회)는 8일(수) 중소기업중앙회 상생룸에서 중소기업 인사․노무관계자 및 관련 협·단체 등을 대상으로 개정 ｢노동조합 및 노동관계조정법｣(이하 노동조합법)에 대한 설명회를 개최하였다고 밝혔다. 오늘 설명회는 지난 3월 10일부터 시행된 개정 노동조합법이 중소기업 현장에 무사히 안착할 수 있도록 법에 대한 이해",
      "detailPath": "docs/details/press/press-2026-04-08-081_중소벤처기업부_개정_노동조합법_현장_혼선_없이_안착하도록_중기부_중기중앙회_공동_설명회_개최.json"
    },
    {
      "id": "press-2026-04-08-082_중소벤처기업부_스타트업의_혁신기술_K_방산의_미래가_되다_모두의_챌린지_방산_추진",
      "layer": "press",
      "title": "스타트업의 혁신기술! K-방산의 미래가 되다「모두의 챌린지 방산」 추진",
      "institution": "중소벤처기업부",
      "date": "2026-04-08",
      "docType": "brief",
      "excerpt": "중소벤처기업부(장관 한성숙, 이하 중기부)와 국방부(장관 안규백)은 8일(수) 서울 전쟁기념관 피스앤파크 컨벤션에서 '모두의 챌린지 방산'을 본격 추진한다고 밝혔다. 《 모두의 챌린지 방산 개요 》  (일시/장소) 4.8(수) 14:00 / 서울 전쟁기념관 피스앤파크 아주르홀  (주요내용) '모두의 챌린지 방산' 경과 보고, 방산 트렌드 분석 강의 및 네트워킹 등",
      "detailPath": "docs/details/press/press-2026-04-08-082_중소벤처기업부_스타트업의_혁신기술_K_방산의_미래가_되다_모두의_챌린지_방산_추진.json"
    },
    {
      "id": "press-2026-04-08-083_산림청_산림청_임산물_포장재_지원_등_보조사업_확대",
      "layer": "press",
      "title": "산림청, 임산물 포장재 지원 등 보조사업 확대",
      "institution": "산림청",
      "date": "2026-04-08",
      "docType": "brief",
      "excerpt": "산림청, 임산물 포장재 지원 등 보조사업 확대 - 석유화학제품(비닐, PP용기) 지원 등 보조사업 확대로 임업인 경영 부담 완화 - 산림청(청장 박은식)은 최근 중동전쟁 장기화에 따른 석유화학제품 수급 어려움으로 상반기 임산물 포장 및 출하에 차질이 예상되는 등 임업인의 부담이 가중되고 있어 임산물 가공·유통 분야 국고보조사업을 확대 지원하겠다고 8일 밝혔다. 대상 사업은 임산물 상품화지원,",
      "detailPath": "docs/details/press/press-2026-04-08-083_산림청_산림청_임산물_포장재_지원_등_보조사업_확대.json"
    },
    {
      "id": "press-2026-04-08-084_농림축산식품부_농식품부_농지_전수조사를_위한_중앙_지방정부_간_협력_방안_논의",
      "layer": "press",
      "title": "농식품부, 농지 전수조사를 위한 중앙-지방정부 간 협력 방안 논의",
      "institution": "농림축산식품부",
      "date": "2026-04-08",
      "docType": "brief",
      "excerpt": "김종구 농림축산식품부 차관은 4월 8일(수) 오후, 광역 지방정부의 농업 관련 국장들이 참석하는 '시·도 농정국장회의'를 주재하였다. 이번 회의에서는 농지 전수조사 추진 방향에 대한 지방정부의 의견을 수렴하고, 원활한 조사를 위한 중앙-지방정부 실무협의체 운영, 지방정부의 전담 인력 구성 및 예산 편성, 지역 실정에 맞는 다양한 홍보 방안 마련 등에 관한 적극적인 협조를 요청하였다. 김종구 ",
      "detailPath": "docs/details/press/press-2026-04-08-084_농림축산식품부_농식품부_농지_전수조사를_위한_중앙_지방정부_간_협력_방안_논의.json"
    },
    {
      "id": "press-2026-04-08-085_소방청_국민의_생명을_지켜낸_40인의_최우수_구급대원들_소방청_에쓰오일_119마스터세이버_시상식_개최",
      "layer": "press",
      "title": "&quot;국민의 생명을 지켜낸 40인의 최우수 구급대원들&quot; 소방청-에쓰오일, '119마스터세이버' 시상식 개최",
      "institution": "소방청",
      "date": "2026-04-08",
      "docType": "brief",
      "excerpt": "\"국민의 생명을 지켜낸 40인의 최우수 구급대원들\" 소방청-에쓰오일, '119마스터세이버' 시상식 개최 - 4월 8일 에쓰오일 사옥에서 최우수 구급대원 시상 및 소방영웅지킴이 기금 전달식 진행 - 2025년 한 해 심정지, 뇌졸중, 중증외상 환자를 모두 살려낸 구급대원 40명 영예 안아",
      "detailPath": "docs/details/press/press-2026-04-08-085_소방청_국민의_생명을_지켜낸_40인의_최우수_구급대원들_소방청_에쓰오일_119마스터세이버_시상식_개최.json"
    },
    {
      "id": "press-2026-04-08-086_국방부_국방의_가치를_국민의_시선으로_국방부_온라인_서포터즈_M프렌즈_11기_발대식_개최",
      "layer": "press",
      "title": "'국방의 가치를 국민의 시선으로' 국방부 온라인 서포터즈 'M프렌즈 11기' 발대식 개최",
      "institution": "국방부",
      "date": "2026-04-08",
      "docType": "brief",
      "excerpt": "\"국방의 가치를 국민의 시선으로\" 국방부 온라인 서포터즈 'M프렌즈 11기' 발대식 개최 □ 국방부는 4월 8일(수) 국방컨벤션에서 「국방부 온라인 서포터즈(이하 M프렌즈) 11기 발대식」을 개최했습니다. ㅇ 'M프렌즈'는 국방부와 국민 간의 소통을 강화하기 위해 운영되는 대학생 온라인 서포터즈로, 청년의 시각에서 국방정책과 군 현장을 직접 체험하고 콘텐츠화하여 전달합니다. □ 이번 11기 ",
      "detailPath": "docs/details/press/press-2026-04-08-086_국방부_국방의_가치를_국민의_시선으로_국방부_온라인_서포터즈_M프렌즈_11기_발대식_개최.json"
    },
    {
      "id": "press-2026-04-08-087_산림청_현장의_목소리_담았다_산림청_재선충병_방제_사각지대_개선과_국민_안전_강화",
      "layer": "press",
      "title": "&quot;현장의 목소리 담았다&quot;&middot;&middot;&middot; 산림청, 재선충병 방제 사각지대 개선과 국민 안전 강화!",
      "institution": "산림청",
      "date": "2026-04-08",
      "docType": "brief",
      "excerpt": "\"현장의 목소리 담았다\"··· 산림청, 재선충병 방제 사각지대 개선과 국민 안전 강화! - 산림청, 재선충병 피해로 인한 국민 안전 확보 방안 마련 및 방제 정책 개선 - 산림청(청장 박은식)은 소나무재선충병 피해에 총력대응하고 국민의 안전을 위협하는 위험 요소를 선제적으로 차단하기 위해 현장의 목소리를 반영한 대대적인 재선충병 방제 정책 개선에 나선다고 8일 밝혔다. 산림청은 이날 재선충병",
      "detailPath": "docs/details/press/press-2026-04-08-087_산림청_현장의_목소리_담았다_산림청_재선충병_방제_사각지대_개선과_국민_안전_강화.json"
    },
    {
      "id": "press-2026-04-08-088_해양수산부_해수부_호르무즈_해협_통항_재개_관련_선사_회의_개최",
      "layer": "press",
      "title": "해수부, 호르무즈 해협 통항 재개 관련 선사 회의 개최",
      "institution": "해양수산부",
      "date": "2026-04-08",
      "docType": "brief",
      "excerpt": "해수부, 호르무즈 해협 통항 재개 관련 선사 회의 개최 - 호르무즈 통항 관련 선사 자체 운항계획, 정부 지원방안 등 논의 해양수산부(장관 : 황종우)는 4월 8일(수) 미국-이란의 2주간 휴전 발표에 따라 우리 선박 운영 선사들과 호르무즈해협 통항 방안 등에 대해 논의하였다. 휴전의 후속 조치로 호르무즈 해협을 통한 선박 통과가 재개될 것으로 예상됨에 따라 해협 통항 관리에 관한 사항과 선",
      "detailPath": "docs/details/press/press-2026-04-08-088_해양수산부_해수부_호르무즈_해협_통항_재개_관련_선사_회의_개최.json"
    },
    {
      "id": "press-2026-04-08-089_방위사업청_24시간_대한민국을_지키는_하늘의_눈_국산_전략급_무인기_MUAV_양산기_공개",
      "layer": "press",
      "title": "24시간 대한민국을 지키는 '하늘의 눈', 국산 전략급 무인기 MUAV 양산기 공개",
      "institution": "방위사업청",
      "date": "2026-04-08",
      "docType": "brief",
      "excerpt": "- 중고도정찰용무인항공기(MUAV) 양산 1호기 출고식 개최 - - 감시·정찰 능력의 비약적 향상과 자주국방 기반 강화 - 방위사업청(청장 이용철)은 8일 부산 대한항공 테크센터에서 중고도정찰용무인항공기(MUAV:Medium altitude Unmanned Aerial Vehicle) 양산 1호기 출고식을 성황리에 개최하였습니다. 중고도정찰용무인항공기는 방위사업청과 국방과학연구소의 주관 아래",
      "detailPath": "docs/details/press/press-2026-04-08-089_방위사업청_24시간_대한민국을_지키는_하늘의_눈_국산_전략급_무인기_MUAV_양산기_공개.json"
    },
    {
      "id": "press-2026-04-08-090_산업통상부_참고자료_정부_수액세트_안정공급_위한_제조업체_현장_방문_및_간담회_개최",
      "layer": "press",
      "title": "(참고자료)정부, 수액세트 안정공급 위한  제조업체 현장 방문 및 간담회 개최",
      "institution": "산업통상부",
      "date": "2026-04-08",
      "docType": "brief",
      "excerpt": "정부, 수액세트 안정공급 위한 제조업체 현장 방문 및 간담회 개최 -중동전쟁 상황 대응을 위한 생산 및 수급 상황 점검 및 협력방안 모색- 식품의약품안전처(처장 오유경)는 산업통상부(장관 김정관), 보건복지부(장관 정은경), 중소벤처기업부(장관 한성숙)와 함께 환자의 진료 및 치료 등에 사용되는 수액세트가 안정적으로 공급될 수 있도록 수액세트 제조업체의 생산 현장을 방문하여 업계와의 간담회를",
      "detailPath": "docs/details/press/press-2026-04-08-090_산업통상부_참고자료_정부_수액세트_안정공급_위한_제조업체_현장_방문_및_간담회_개최.json"
    },
    {
      "id": "press-2026-04-08-091_산림청_중동전쟁_공급망_위기_첨단_R앤D로_넘는다",
      "layer": "press",
      "title": "중동전쟁 공급망 위기, &quot;첨단 R앤D로 넘는다&quot;",
      "institution": "산림청",
      "date": "2026-04-08",
      "docType": "brief",
      "excerpt": "중동전쟁 공급망 위기, \"첨단 R앤D로 넘는다\" - 산림청, 대형산불 대비 소화약제 수급 현황 및 R앤D 진행상황 긴급 점검 - 산림청(청장 박은식)은 경기도 평택시에 위치한 ㈜대명하이테크를 방문해, 산불 소화약제의 안정적 수급망 확보 및 후속 연구개발사업의 진행 상황을 점검했다고 8일 밝혔다. 2023년 산림청은 국립산림과학원, 민간기업, 대학 등과의 공동 연구를 통해 대형산불의 확산을 빠",
      "detailPath": "docs/details/press/press-2026-04-08-091_산림청_중동전쟁_공급망_위기_첨단_R앤D로_넘는다.json"
    },
    {
      "id": "press-2026-04-08-092_국방부_국방부장관_일본_방위대신_화상회담_실시",
      "layer": "press",
      "title": "국방부장관 - 일본 방위대신 화상회담 실시",
      "institution": "국방부",
      "date": "2026-04-08",
      "docType": "brief",
      "excerpt": "국방부장관 - 일본 방위대신 화상회담 실시 □ 안규백 국방부장관은 4. 8.(수) 오후 서울 국방부에서 고이즈미 신지로 일본 방위대신과 한일 국방장관 화상회담을 실시하였습니다. □ 양 장관은 북한의 최근 방사포와 미사일 발사 동향을 공유하고, 북핵·미사일 위협 억제와 대응을 위해 한미일 안보협력을 긴밀히 추진해 나가는 것이 중요하다는 데 의견을 같이 하였습니다. □ 또한, 중동전쟁을 포함한 ",
      "detailPath": "docs/details/press/press-2026-04-08-092_국방부_국방부장관_일본_방위대신_화상회담_실시.json"
    },
    {
      "id": "press-2026-04-08-093_산림청_산림청_해외산림청년인재_소통간담회_개최",
      "layer": "press",
      "title": "산림청, 해외산림청년인재 소통간담회 개최",
      "institution": "산림청",
      "date": "2026-04-08",
      "docType": "brief",
      "excerpt": "산림청, 해외산림청년인재 소통간담회 개최 - 산림분야 인재 채용을 희망하는 기업,기관에 청년 파견 - 산림청(청장 박은식)은 해외 산림분야 전문가 양성을 위해 선발한 '2026년 해외산림청년인재'와 소통간담회를 개최했다고 8일 밝혔다. 해외산림청년인재 육성사업은 산림청이 청년들에게 산림분야 해외 직무체험, 취업역량 강화, 진로설계를 지원하기 위해 2009년 도입된 사업으로, 지난해까지 총 3",
      "detailPath": "docs/details/press/press-2026-04-08-093_산림청_산림청_해외산림청년인재_소통간담회_개최.json"
    },
    {
      "id": "press-2026-04-08-094_해양수산부_해운기업_부산_이전_지원을_위한_이전기업_지원_협의체_TF_본격_가동",
      "layer": "press",
      "title": "해운기업 부산 이전 지원을 위한 「이전기업 지원 협의체(TF)」 본격 가동",
      "institution": "해양수산부",
      "date": "2026-04-08",
      "docType": "brief",
      "excerpt": "해운기업 부산 이전 지원을 위한 「이전기업 지원 협의체(TF)」 본격 가동 - HMM 등 해운기업과 함께 부산 이전 지원방안 마련 예정 - 해양수산부(장관 황종우)는 4월 8일(수) 15시 부산에서 HMM 등 해운기업의 부산 이전을 체계적으로 지원하기 위한 「이전기업 지원 협의체(TF)」 첫 회의를 개최하였다. 지난달, HMM이 본사 부산 이전과 관련하여 해양수산부·부산광역시·한국해양진흥공사",
      "detailPath": "docs/details/press/press-2026-04-08-094_해양수산부_해운기업_부산_이전_지원을_위한_이전기업_지원_협의체_TF_본격_가동.json"
    },
    {
      "id": "press-2026-04-08-095_외교부_중동지역_정세_관련_긴급_화상_공관장회의_개최_4_8",
      "layer": "press",
      "title": "중동지역 정세 관련  긴급 화상 공관장회의 개최(4.8.)",
      "institution": "외교부",
      "date": "2026-04-08",
      "docType": "brief",
      "excerpt": "외교부는 한국시간 오늘 발표된 미국과 이란의 14일간 휴전 합의와 관련하여, 4.8.(수) 15:00 박윤주 제1차관 주재로 전 중동지역 재외공관 참석 하에 역내 정세 관련 긴급 화상 공관장회의를 개최하였다. 이번 회의에서는 중동 전쟁으로 에너지 수급 및 글로벌 물류 공급망의 불안정이 심화되는 상황 속에서, 역내 지정학적 리스크가 우리 경제와 안보에 미치는 파급 효과를 최소화하고 선제적 대응",
      "detailPath": "docs/details/press/press-2026-04-08-095_외교부_중동지역_정세_관련_긴급_화상_공관장회의_개최_4_8.json"
    },
    {
      "id": "press-2026-04-08-096_외교부_한_투르크메니스탄_영사협의회_출범",
      "layer": "press",
      "title": "한-투르크메니스탄 영사협의회 출범",
      "institution": "외교부",
      "date": "2026-04-08",
      "docType": "brief",
      "excerpt": "임상우 재외국민보호·영사담당 정부대표는 4.8.(수) 오전 외교부 청사에서 아흐메트 구르바노프(Ahmet Gurbanov) 투르크메니스탄 외교부 차관과 제1차 한-투르크메니스탄 영사협의회를 개최하였다. 임 정부대표와 구르바노프 차관은 양국이 그간 중동 전쟁 상황 속에서 이란 체류 우리 국민들의 투르크메니스탄을 통한 대피를 위해 긴밀하게 협조해온 점을 평가하면서, 한-투르크메니스탄 영사협의회를",
      "detailPath": "docs/details/press/press-2026-04-08-096_외교부_한_투르크메니스탄_영사협의회_출범.json"
    },
    {
      "id": "press-2026-04-08-097_국토교통부_중동_상황에도_건설산업이_흔들리지_않도록_정부가_함께_지원하겠습니다",
      "layer": "press",
      "title": "&quot;중동 상황에도 건설산업이 흔들리지 않도록 정부가 함께 지원하겠습니다.&quot;",
      "institution": "국토교통부",
      "date": "2026-04-08",
      "docType": "brief",
      "excerpt": "\"중동 상황에도 건설산업이 흔들리지 않도록 정부가 함께 지원하겠습니다.\" 관련 보도자료 내용입니다. 자세한 내용은 첨부파일을 참고하시기 바랍니다.",
      "detailPath": "docs/details/press/press-2026-04-08-097_국토교통부_중동_상황에도_건설산업이_흔들리지_않도록_정부가_함께_지원하겠습니다.json"
    },
    {
      "id": "press-2026-04-08-098_국무조정실_보도자료_김민석_국무총리_주재_중동상황_건설기업_금융애로_점검_간담회_보도자료_모두발언",
      "layer": "press",
      "title": "[보도자료] 김민석 국무총리 주재 중동상황 건설기업 금융애로 점검 간담회 보도자료 모두발언",
      "institution": "국무조정실",
      "date": "2026-04-08",
      "docType": "brief",
      "excerpt": "[모두발언] 중동상황 건설기업 금융애로 점검 간담회 - 2026. 4. 8.(수) 15:00, 서울 중구 국토발전전시관 - 지금부터 중동상황 건설기업 금융애로 점검 간담회를 시작하겠습니다.",
      "detailPath": "docs/details/press/press-2026-04-08-098_국무조정실_보도자료_김민석_국무총리_주재_중동상황_건설기업_금융애로_점검_간담회_보도자료_모두발언.json"
    },
    {
      "id": "press-2026-04-08-099_법무부_한국사회_적응_도울_이민자_멘토_23명_새로_모신다",
      "layer": "press",
      "title": "한국사회 적응 도울 이민자 멘토 23명 새로 모신다",
      "institution": "법무부",
      "date": "2026-04-08",
      "docType": "brief",
      "excerpt": "한국사회 적응 도울 이민자 멘토 23명 새로 모신다 - 법무부, 「제4기 사회통합 이민자 멘토단」 위촉식 개최 - 신규 23명 포함, 총 23개국 47명을 이민자 멘토로 위촉 - 한국 적응 경험 공유·정책 자문·국민 인식 개선까지 폭넓은 역할 기대",
      "detailPath": "docs/details/press/press-2026-04-08-099_법무부_한국사회_적응_도울_이민자_멘토_23명_새로_모신다.json"
    },
    {
      "id": "press-2026-04-08-100_산림청_서부지방산림청_산사태_예방_강화_현장조사",
      "layer": "press",
      "title": "서부지방산림청, 산사태 예방 강화 현장조사",
      "institution": "산림청",
      "date": "2026-04-08",
      "docType": "brief",
      "excerpt": "서부지방산림청, 산사태 예방 강화 현장조사 - 산사태안전점검반 운영, 산사태 위험요인 조사 및 선제적 대응 - 산림청 서부지방산림청은 봄철 해빙기 이후 예방대책이 필요한 대상지 조사 및 여름철 집중호우에 대비해 민간전문가로 구성된 산사태안전점검반을 운영하여 현장조사를 실시한다고 밝혔다. 이번 사전점검은 민가시설물 등의 피해 우려 지역과 산사태취약지역 지정 여부를 확인하고, 전문가와 함께 위험",
      "detailPath": "docs/details/press/press-2026-04-08-100_산림청_서부지방산림청_산사태_예방_강화_현장조사.json"
    }
  ]
}